info face="Arial" size=-35 bold=0 italic=0 charset="" unicode=1 stretchH=100 smooth=1 aa=1 padding=0,0,0,0 spacing=1,1 outline=0
common lineHeight=40 base=32 scaleW=512 scaleH=256 pages=1 packed=0 alphaChnl=0 redChnl=4 greenChnl=4 blueChnl=4
page id=0 file="Font35Arial_0.png"
chars count=191
char id=32   x=310   y=61    width=3     height=1     xoffset=-1    yoffset=39    xadvance=10    page=0  chnl=15
char id=33   x=459   y=111   width=5     height=25    xoffset=3     yoffset=7     xadvance=11    page=0  chnl=15
char id=34   x=222   y=161   width=10    height=9     xoffset=1     yoffset=7     xadvance=12    page=0  chnl=15
char id=35   x=129   y=91    width=20    height=25    xoffset=-1    yoffset=7     xadvance=19    page=0  chnl=15
char id=36   x=288   y=33    width=17    height=29    xoffset=1     yoffset=6     xadvance=19    page=0  chnl=15
char id=37   x=449   y=33    width=29    height=25    xoffset=1     yoffset=7     xadvance=31    page=0  chnl=15
char id=38   x=366   y=60    width=22    height=25    xoffset=1     yoffset=7     xadvance=23    page=0  chnl=15
char id=39   x=233   y=161   width=5     height=9     xoffset=1     yoffset=7     xadvance=7     page=0  chnl=15
char id=40   x=10    y=33    width=9     height=32    xoffset=2     yoffset=7     xadvance=12    page=0  chnl=15
char id=41   x=0     y=34    width=9     height=32    xoffset=2     yoffset=7     xadvance=12    page=0  chnl=15
char id=42   x=177   y=161   width=13    height=11    xoffset=1     yoffset=7     xadvance=14    page=0  chnl=15
char id=43   x=463   y=137   width=18    height=17    xoffset=1     yoffset=11    xadvance=20    page=0  chnl=15
char id=44   x=239   y=161   width=5     height=8     xoffset=3     yoffset=29    xadvance=10    page=0  chnl=15
char id=45   x=335   y=160   width=12    height=3     xoffset=0     yoffset=21    xadvance=12    page=0  chnl=15
char id=46   x=379   y=157   width=5     height=3     xoffset=3     yoffset=29    xadvance=10    page=0  chnl=15
char id=47   x=412   y=111   width=12    height=25    xoffset=-1    yoffset=7     xadvance=10    page=0  chnl=15
char id=48   x=326   y=87    width=18    height=25    xoffset=1     yoffset=7     xadvance=19    page=0  chnl=15
char id=49   x=425   y=111   width=11    height=25    xoffset=3     yoffset=7     xadvance=19    page=0  chnl=15
char id=50   x=307   y=89    width=18    height=25    xoffset=0     yoffset=7     xadvance=19    page=0  chnl=15
char id=51   x=90    y=117   width=17    height=25    xoffset=1     yoffset=7     xadvance=19    page=0  chnl=15
char id=52   x=288   y=90    width=18    height=25    xoffset=0     yoffset=7     xadvance=19    page=0  chnl=15
char id=53   x=108   y=117   width=17    height=25    xoffset=1     yoffset=7     xadvance=19    page=0  chnl=15
char id=54   x=269   y=90    width=18    height=25    xoffset=0     yoffset=7     xadvance=19    page=0  chnl=15
char id=55   x=0     y=119   width=17    height=25    xoffset=1     yoffset=7     xadvance=19    page=0  chnl=15
char id=56   x=250   y=90    width=18    height=25    xoffset=1     yoffset=7     xadvance=19    page=0  chnl=15
char id=57   x=126   y=117   width=17    height=25    xoffset=1     yoffset=7     xadvance=19    page=0  chnl=15
char id=58   x=438   y=137   width=5     height=18    xoffset=3     yoffset=14    xadvance=10    page=0  chnl=15
char id=59   x=502   y=111   width=5     height=23    xoffset=3     yoffset=14    xadvance=10    page=0  chnl=15
char id=60   x=482   y=137   width=18    height=17    xoffset=1     yoffset=11    xadvance=20    page=0  chnl=15
char id=61   x=158   y=164   width=18    height=11    xoffset=1     yoffset=14    xadvance=20    page=0  chnl=15
char id=62   x=444   y=137   width=18    height=17    xoffset=1     yoffset=11    xadvance=20    page=0  chnl=15
char id=63   x=144   y=117   width=17    height=25    xoffset=1     yoffset=7     xadvance=19    page=0  chnl=15
char id=64   x=10    y=0     width=34    height=32    xoffset=1     yoffset=7     xadvance=36    page=0  chnl=15
char id=65   x=220   y=64    width=25    height=25    xoffset=-1    yoffset=7     xadvance=23    page=0  chnl=15
char id=66   x=108   y=91    width=20    height=25    xoffset=2     yoffset=7     xadvance=23    page=0  chnl=15
char id=67   x=294   y=63    width=23    height=25    xoffset=1     yoffset=7     xadvance=25    page=0  chnl=15
char id=68   x=389   y=59    width=22    height=25    xoffset=2     yoffset=7     xadvance=25    page=0  chnl=15
char id=69   x=87    y=91    width=20    height=25    xoffset=2     yoffset=7     xadvance=23    page=0  chnl=15
char id=70   x=231   y=90    width=18    height=25    xoffset=2     yoffset=7     xadvance=21    page=0  chnl=15
char id=71   x=116   y=65    width=25    height=25    xoffset=1     yoffset=7     xadvance=27    page=0  chnl=15
char id=72   x=0     y=93    width=21    height=25    xoffset=2     yoffset=7     xadvance=25    page=0  chnl=15
char id=73   x=477   y=111   width=5     height=25    xoffset=2     yoffset=7     xadvance=9     page=0  chnl=15
char id=74   x=287   y=116   width=16    height=25    xoffset=0     yoffset=7     xadvance=18    page=0  chnl=15
char id=75   x=412   y=59    width=21    height=25    xoffset=2     yoffset=7     xadvance=23    page=0  chnl=15
char id=76   x=162   y=116   width=17    height=25    xoffset=2     yoffset=7     xadvance=19    page=0  chnl=15
char id=77   x=168   y=64    width=25    height=25    xoffset=2     yoffset=7     xadvance=29    page=0  chnl=15
char id=78   x=44    y=92    width=21    height=25    xoffset=2     yoffset=7     xadvance=25    page=0  chnl=15
char id=79   x=142   y=64    width=25    height=25    xoffset=1     yoffset=7     xadvance=27    page=0  chnl=15
char id=80   x=66    y=92    width=20    height=25    xoffset=2     yoffset=7     xadvance=23    page=0  chnl=15
char id=81   x=332   y=33    width=25    height=26    xoffset=1     yoffset=7     xadvance=27    page=0  chnl=15
char id=82   x=246   y=64    width=23    height=25    xoffset=2     yoffset=7     xadvance=25    page=0  chnl=15
char id=83   x=434   y=59    width=21    height=25    xoffset=1     yoffset=7     xadvance=23    page=0  chnl=15
char id=84   x=456   y=59    width=21    height=25    xoffset=0     yoffset=7     xadvance=21    page=0  chnl=15
char id=85   x=478   y=59    width=21    height=25    xoffset=2     yoffset=7     xadvance=25    page=0  chnl=15
char id=86   x=342   y=60    width=23    height=25    xoffset=0     yoffset=7     xadvance=23    page=0  chnl=15
char id=87   x=376   y=33    width=36    height=25    xoffset=0     yoffset=7     xadvance=36    page=0  chnl=15
char id=88   x=270   y=64    width=23    height=25    xoffset=0     yoffset=7     xadvance=23    page=0  chnl=15
char id=89   x=318   y=61    width=23    height=25    xoffset=0     yoffset=7     xadvance=23    page=0  chnl=15
char id=90   x=22    y=93    width=21    height=25    xoffset=0     yoffset=7     xadvance=21    page=0  chnl=15
char id=91   x=30    y=33    width=8     height=32    xoffset=2     yoffset=7     xadvance=10    page=0  chnl=15
char id=92   x=399   y=112   width=12    height=25    xoffset=-1    yoffset=7     xadvance=10    page=0  chnl=15
char id=93   x=39    y=33    width=8     height=32    xoffset=0     yoffset=7     xadvance=10    page=0  chnl=15
char id=94   x=67    y=168   width=17    height=14    xoffset=0     yoffset=7     xadvance=17    page=0  chnl=15
char id=95   x=291   y=161   width=21    height=3     xoffset=-1    yoffset=36    xadvance=19    page=0  chnl=15
char id=96   x=283   y=161   width=7     height=5     xoffset=1     yoffset=7     xadvance=12    page=0  chnl=15
char id=97   x=324   y=141   width=17    height=18    xoffset=0     yoffset=14    xadvance=18    page=0  chnl=15
char id=98   x=180   y=116   width=17    height=25    xoffset=1     yoffset=7     xadvance=19    page=0  chnl=15
char id=99   x=360   y=138   width=16    height=18    xoffset=1     yoffset=14    xadvance=18    page=0  chnl=15
char id=100  x=198   y=116   width=17    height=25    xoffset=0     yoffset=7     xadvance=19    page=0  chnl=15
char id=101  x=250   y=142   width=18    height=18    xoffset=0     yoffset=14    xadvance=18    page=0  chnl=15
char id=102  x=386   y=112   width=12    height=25    xoffset=0     yoffset=7     xadvance=10    page=0  chnl=15
char id=103  x=216   y=116   width=17    height=25    xoffset=0     yoffset=14    xadvance=19    page=0  chnl=15
char id=104  x=496   y=85    width=15    height=25    xoffset=2     yoffset=7     xadvance=19    page=0  chnl=15
char id=105  x=453   y=111   width=5     height=25    xoffset=1     yoffset=7     xadvance=7     page=0  chnl=15
char id=106  x=20    y=33    width=9     height=32    xoffset=-2    yoffset=7     xadvance=9     page=0  chnl=15
char id=107  x=321   y=115   width=16    height=25    xoffset=2     yoffset=7     xadvance=18    page=0  chnl=15
char id=108  x=471   y=111   width=5     height=25    xoffset=1     yoffset=7     xadvance=7     page=0  chnl=15
char id=109  x=197   y=142   width=26    height=18    xoffset=2     yoffset=14    xadvance=29    page=0  chnl=15
char id=110  x=394   y=138   width=15    height=18    xoffset=2     yoffset=14    xadvance=19    page=0  chnl=15
char id=111  x=269   y=142   width=18    height=18    xoffset=0     yoffset=14    xadvance=18    page=0  chnl=15
char id=112  x=234   y=116   width=17    height=25    xoffset=1     yoffset=14    xadvance=19    page=0  chnl=15
char id=113  x=252   y=116   width=17    height=25    xoffset=0     yoffset=14    xadvance=19    page=0  chnl=15
char id=114  x=426   y=137   width=11    height=18    xoffset=2     yoffset=14    xadvance=12    page=0  chnl=15
char id=115  x=306   y=142   width=17    height=18    xoffset=0     yoffset=14    xadvance=18    page=0  chnl=15
char id=116  x=34    y=145   width=10    height=24    xoffset=0     yoffset=8     xadvance=10    page=0  chnl=15
char id=117  x=410   y=138   width=15    height=18    xoffset=2     yoffset=14    xadvance=19    page=0  chnl=15
char id=118  x=288   y=142   width=17    height=18    xoffset=0     yoffset=14    xadvance=17    page=0  chnl=15
char id=119  x=224   y=142   width=25    height=18    xoffset=0     yoffset=14    xadvance=25    page=0  chnl=15
char id=120  x=377   y=138   width=16    height=18    xoffset=0     yoffset=14    xadvance=16    page=0  chnl=15
char id=121  x=478   y=85    width=17    height=25    xoffset=0     yoffset=14    xadvance=17    page=0  chnl=15
char id=122  x=342   y=139   width=17    height=18    xoffset=0     yoffset=14    xadvance=17    page=0  chnl=15
char id=123  x=473   y=0     width=12    height=32    xoffset=0     yoffset=7     xadvance=12    page=0  chnl=15
char id=124  x=0     y=0     width=4     height=33    xoffset=2     yoffset=7     xadvance=9     page=0  chnl=15
char id=125  x=498   y=0     width=11    height=32    xoffset=1     yoffset=7     xadvance=12    page=0  chnl=15
char id=126  x=255   y=161   width=18    height=6     xoffset=1     yoffset=17    xadvance=20    page=0  chnl=15
char id=160  x=306   y=61    width=3     height=1     xoffset=-1    yoffset=39    xadvance=10    page=0  chnl=15
char id=161  x=465   y=111   width=5     height=25    xoffset=3     yoffset=14    xadvance=11    page=0  chnl=15
char id=162  x=401   y=0     width=17    height=32    xoffset=1     yoffset=7     xadvance=19    page=0  chnl=15
char id=163  x=191   y=90    width=19    height=25    xoffset=0     yoffset=7     xadvance=19    page=0  chnl=15
char id=164  x=0     y=170   width=17    height=16    xoffset=1     yoffset=13    xadvance=19    page=0  chnl=15
char id=165  x=211   y=90    width=19    height=25    xoffset=0     yoffset=7     xadvance=19    page=0  chnl=15
char id=166  x=5     y=0     width=4     height=33    xoffset=2     yoffset=7     xadvance=9     page=0  chnl=15
char id=167  x=419   y=0     width=17    height=32    xoffset=1     yoffset=7     xadvance=19    page=0  chnl=15
char id=168  x=361   y=157   width=11    height=3     xoffset=0     yoffset=7     xadvance=12    page=0  chnl=15
char id=169  x=87    y=65    width=28    height=25    xoffset=-1    yoffset=7     xadvance=26    page=0  chnl=15
char id=170  x=118   y=167   width=13    height=13    xoffset=0     yoffset=7     xadvance=13    page=0  chnl=15
char id=171  x=18    y=170   width=15    height=16    xoffset=2     yoffset=15    xadvance=19    page=0  chnl=15
char id=172  x=191   y=161   width=18    height=10    xoffset=1     yoffset=15    xadvance=20    page=0  chnl=15
char id=173  x=348   y=158   width=12    height=3     xoffset=0     yoffset=21    xadvance=12    page=0  chnl=15
char id=174  x=0     y=67    width=28    height=25    xoffset=-1    yoffset=7     xadvance=26    page=0  chnl=15
char id=175  x=313   y=161   width=21    height=3     xoffset=-1    yoffset=2     xadvance=19    page=0  chnl=15
char id=176  x=210   y=161   width=11    height=9     xoffset=1     yoffset=7     xadvance=14    page=0  chnl=15
char id=177  x=128   y=143   width=18    height=21    xoffset=1     yoffset=11    xadvance=19    page=0  chnl=15
char id=178  x=145   y=165   width=12    height=13    xoffset=0     yoffset=7     xadvance=12    page=0  chnl=15
char id=179  x=132   y=165   width=12    height=13    xoffset=0     yoffset=7     xadvance=12    page=0  chnl=15
char id=180  x=274   y=161   width=8     height=5     xoffset=3     yoffset=7     xadvance=12    page=0  chnl=15
char id=181  x=270   y=116   width=16    height=25    xoffset=2     yoffset=14    xadvance=20    page=0  chnl=15
char id=182  x=272   y=0     width=21    height=32    xoffset=-1    yoffset=7     xadvance=19    page=0  chnl=15
char id=183  x=373   y=157   width=5     height=3     xoffset=3     yoffset=18    xadvance=12    page=0  chnl=15
char id=184  x=245   y=161   width=9     height=7     xoffset=1     yoffset=32    xadvance=12    page=0  chnl=15
char id=185  x=501   y=136   width=8     height=13    xoffset=1     yoffset=7     xadvance=12    page=0  chnl=15
char id=186  x=104   y=167   width=13    height=13    xoffset=0     yoffset=7     xadvance=13    page=0  chnl=15
char id=187  x=34    y=170   width=15    height=16    xoffset=2     yoffset=15    xadvance=19    page=0  chnl=15
char id=188  x=29    y=66    width=28    height=25    xoffset=1     yoffset=7     xadvance=29    page=0  chnl=15
char id=189  x=58    y=66    width=28    height=25    xoffset=1     yoffset=7     xadvance=29    page=0  chnl=15
char id=190  x=479   y=33    width=29    height=25    xoffset=0     yoffset=7     xadvance=29    page=0  chnl=15
char id=191  x=18    y=119   width=17    height=25    xoffset=2     yoffset=14    xadvance=21    page=0  chnl=15
char id=192  x=45    y=0     width=25    height=32    xoffset=-1    yoffset=0     xadvance=23    page=0  chnl=15
char id=193  x=71    y=0     width=25    height=32    xoffset=-1    yoffset=0     xadvance=23    page=0  chnl=15
char id=194  x=97    y=0     width=25    height=32    xoffset=-1    yoffset=0     xadvance=23    page=0  chnl=15
char id=195  x=90    y=33    width=25    height=31    xoffset=-1    yoffset=1     xadvance=23    page=0  chnl=15
char id=196  x=164   y=33    width=25    height=30    xoffset=-1    yoffset=2     xadvance=23    page=0  chnl=15
char id=197  x=190   y=33    width=25    height=30    xoffset=-1    yoffset=2     xadvance=23    page=0  chnl=15
char id=198  x=413   y=33    width=35    height=25    xoffset=-1    yoffset=7     xadvance=35    page=0  chnl=15
char id=199  x=226   y=0     width=23    height=32    xoffset=1     yoffset=7     xadvance=25    page=0  chnl=15
char id=200  x=338   y=0     width=20    height=32    xoffset=2     yoffset=0     xadvance=23    page=0  chnl=15
char id=201  x=359   y=0     width=20    height=32    xoffset=2     yoffset=0     xadvance=23    page=0  chnl=15
char id=202  x=380   y=0     width=20    height=32    xoffset=2     yoffset=0     xadvance=23    page=0  chnl=15
char id=203  x=238   y=33    width=20    height=30    xoffset=2     yoffset=2     xadvance=23    page=0  chnl=15
char id=204  x=56    y=33    width=7     height=32    xoffset=0     yoffset=0     xadvance=10    page=0  chnl=15
char id=205  x=48    y=33    width=7     height=32    xoffset=1     yoffset=0     xadvance=10    page=0  chnl=15
char id=206  x=486   y=0     width=11    height=32    xoffset=-1    yoffset=0     xadvance=10    page=0  chnl=15
char id=207  x=277   y=33    width=10    height=30    xoffset=0     yoffset=2     xadvance=10    page=0  chnl=15
char id=208  x=194   y=64    width=25    height=25    xoffset=-1    yoffset=7     xadvance=25    page=0  chnl=15
char id=209  x=116   y=33    width=21    height=31    xoffset=2     yoffset=1     xadvance=25    page=0  chnl=15
char id=210  x=175   y=0     width=25    height=32    xoffset=1     yoffset=0     xadvance=27    page=0  chnl=15
char id=211  x=149   y=0     width=25    height=32    xoffset=1     yoffset=0     xadvance=27    page=0  chnl=15
char id=212  x=123   y=0     width=25    height=32    xoffset=1     yoffset=0     xadvance=27    page=0  chnl=15
char id=213  x=64    y=33    width=25    height=31    xoffset=1     yoffset=1     xadvance=27    page=0  chnl=15
char id=214  x=138   y=33    width=25    height=30    xoffset=1     yoffset=2     xadvance=27    page=0  chnl=15
char id=215  x=50    y=169   width=16    height=15    xoffset=2     yoffset=12    xadvance=20    page=0  chnl=15
char id=216  x=306   y=33    width=25    height=27    xoffset=1     yoffset=6     xadvance=27    page=0  chnl=15
char id=217  x=316   y=0     width=21    height=32    xoffset=2     yoffset=0     xadvance=25    page=0  chnl=15
char id=218  x=294   y=0     width=21    height=32    xoffset=2     yoffset=0     xadvance=25    page=0  chnl=15
char id=219  x=250   y=0     width=21    height=32    xoffset=2     yoffset=0     xadvance=25    page=0  chnl=15
char id=220  x=216   y=33    width=21    height=30    xoffset=2     yoffset=2     xadvance=25    page=0  chnl=15
char id=221  x=201   y=0     width=24    height=32    xoffset=-1    yoffset=0     xadvance=23    page=0  chnl=15
char id=222  x=150   y=90    width=20    height=25    xoffset=2     yoffset=7     xadvance=23    page=0  chnl=15
char id=223  x=171   y=90    width=19    height=25    xoffset=2     yoffset=7     xadvance=21    page=0  chnl=15
char id=224  x=36    y=119   width=17    height=25    xoffset=0     yoffset=7     xadvance=19    page=0  chnl=15
char id=225  x=54    y=118   width=17    height=25    xoffset=0     yoffset=7     xadvance=19    page=0  chnl=15
char id=226  x=72    y=118   width=17    height=25    xoffset=0     yoffset=7     xadvance=19    page=0  chnl=15
char id=227  x=0     y=145   width=17    height=24    xoffset=0     yoffset=8     xadvance=19    page=0  chnl=15
char id=228  x=83    y=144   width=17    height=23    xoffset=0     yoffset=9     xadvance=19    page=0  chnl=15
char id=229  x=358   y=33    width=17    height=26    xoffset=0     yoffset=6     xadvance=19    page=0  chnl=15
char id=230  x=166   y=142   width=30    height=18    xoffset=0     yoffset=14    xadvance=31    page=0  chnl=15
char id=231  x=304   y=116   width=16    height=25    xoffset=1     yoffset=14    xadvance=18    page=0  chnl=15
char id=232  x=459   y=85    width=18    height=25    xoffset=0     yoffset=7     xadvance=19    page=0  chnl=15
char id=233  x=345   y=86    width=18    height=25    xoffset=0     yoffset=7     xadvance=19    page=0  chnl=15
char id=234  x=364   y=86    width=18    height=25    xoffset=0     yoffset=7     xadvance=19    page=0  chnl=15
char id=235  x=64    y=144   width=18    height=23    xoffset=0     yoffset=9     xadvance=19    page=0  chnl=15
char id=236  x=437   y=111   width=7     height=25    xoffset=0     yoffset=7     xadvance=10    page=0  chnl=15
char id=237  x=445   y=111   width=7     height=25    xoffset=2     yoffset=7     xadvance=10    page=0  chnl=15
char id=238  x=500   y=59    width=11    height=25    xoffset=-1    yoffset=7     xadvance=10    page=0  chnl=15
char id=239  x=117   y=143   width=10    height=23    xoffset=0     yoffset=9     xadvance=10    page=0  chnl=15
char id=240  x=383   y=86    width=18    height=25    xoffset=0     yoffset=7     xadvance=19    page=0  chnl=15
char id=241  x=18    y=145   width=15    height=24    xoffset=2     yoffset=8     xadvance=19    page=0  chnl=15
char id=242  x=402   y=85    width=18    height=25    xoffset=0     yoffset=7     xadvance=19    page=0  chnl=15
char id=243  x=421   y=85    width=18    height=25    xoffset=0     yoffset=7     xadvance=19    page=0  chnl=15
char id=244  x=440   y=85    width=18    height=25    xoffset=0     yoffset=7     xadvance=19    page=0  chnl=15
char id=245  x=483   y=111   width=18    height=24    xoffset=0     yoffset=8     xadvance=19    page=0  chnl=15
char id=246  x=45    y=145   width=18    height=23    xoffset=0     yoffset=9     xadvance=19    page=0  chnl=15
char id=247  x=85    y=168   width=18    height=13    xoffset=1     yoffset=13    xadvance=19    page=0  chnl=15
char id=248  x=147   y=143   width=18    height=20    xoffset=1     yoffset=13    xadvance=20    page=0  chnl=15
char id=249  x=370   y=112   width=15    height=25    xoffset=2     yoffset=7     xadvance=19    page=0  chnl=15
char id=250  x=354   y=112   width=15    height=25    xoffset=2     yoffset=7     xadvance=19    page=0  chnl=15
char id=251  x=338   y=113   width=15    height=25    xoffset=2     yoffset=7     xadvance=19    page=0  chnl=15
char id=252  x=101   y=143   width=15    height=23    xoffset=2     yoffset=9     xadvance=19    page=0  chnl=15
char id=253  x=455   y=0     width=17    height=32    xoffset=0     yoffset=7     xadvance=18    page=0  chnl=15
char id=254  x=437   y=0     width=17    height=32    xoffset=1     yoffset=7     xadvance=19    page=0  chnl=15
char id=255  x=259   y=33    width=17    height=30    xoffset=0     yoffset=9     xadvance=18    page=0  chnl=15
kernings count=91
kerning first=32  second=65  amount=-2  
kerning first=32  second=84  amount=-1  
kerning first=32  second=89  amount=-1  
kerning first=121 second=46  amount=-3  
kerning first=121 second=44  amount=-3  
kerning first=119 second=46  amount=-2  
kerning first=119 second=44  amount=-2  
kerning first=118 second=46  amount=-3  
kerning first=118 second=44  amount=-3  
kerning first=114 second=46  amount=-2  
kerning first=49  second=49  amount=-3  
kerning first=65  second=32  amount=-2  
kerning first=65  second=84  amount=-3  
kerning first=65  second=86  amount=-3  
kerning first=65  second=87  amount=-1  
kerning first=65  second=89  amount=-3  
kerning first=65  second=118 amount=-1  
kerning first=65  second=119 amount=-1  
kerning first=65  second=121 amount=-1  
kerning first=114 second=44  amount=-2  
kerning first=70  second=44  amount=-4  
kerning first=70  second=46  amount=-4  
kerning first=70  second=65  amount=-2  
kerning first=76  second=32  amount=-1  
kerning first=76  second=84  amount=-3  
kerning first=76  second=86  amount=-3  
kerning first=76  second=87  amount=-3  
kerning first=76  second=89  amount=-3  
kerning first=76  second=121 amount=-1  
kerning first=102 second=102 amount=-1  
kerning first=80  second=32  amount=-1  
kerning first=80  second=44  amount=-5  
kerning first=80  second=46  amount=-5  
kerning first=80  second=65  amount=-3  
kerning first=82  second=84  amount=-1  
kerning first=82  second=86  amount=-1  
kerning first=82  second=87  amount=-1  
kerning first=82  second=89  amount=-1  
kerning first=84  second=32  amount=-1  
kerning first=84  second=44  amount=-4  
kerning first=84  second=45  amount=-2  
kerning first=84  second=46  amount=-4  
kerning first=84  second=58  amount=-4  
kerning first=89  second=118 amount=-2  
kerning first=84  second=65  amount=-3  
kerning first=84  second=79  amount=-1  
kerning first=84  second=97  amount=-4  
kerning first=84  second=99  amount=-4  
kerning first=84  second=101 amount=-4  
kerning first=84  second=105 amount=-1  
kerning first=84  second=111 amount=-4  
kerning first=84  second=114 amount=-1  
kerning first=84  second=115 amount=-4  
kerning first=84  second=117 amount=-1  
kerning first=84  second=119 amount=-2  
kerning first=84  second=121 amount=-2  
kerning first=86  second=44  amount=-3  
kerning first=86  second=45  amount=-2  
kerning first=86  second=46  amount=-3  
kerning first=86  second=58  amount=-1  
kerning first=89  second=117 amount=-2  
kerning first=86  second=65  amount=-3  
kerning first=86  second=97  amount=-3  
kerning first=86  second=101 amount=-2  
kerning first=86  second=105 amount=-1  
kerning first=86  second=111 amount=-2  
kerning first=86  second=114 amount=-1  
kerning first=86  second=117 amount=-1  
kerning first=86  second=121 amount=-1  
kerning first=87  second=44  amount=-2  
kerning first=87  second=45  amount=-1  
kerning first=87  second=46  amount=-2  
kerning first=87  second=58  amount=-1  
kerning first=89  second=113 amount=-3  
kerning first=87  second=65  amount=-1  
kerning first=87  second=97  amount=-1  
kerning first=87  second=101 amount=-1  
kerning first=89  second=112 amount=-3  
kerning first=87  second=111 amount=-1  
kerning first=87  second=114 amount=-1  
kerning first=87  second=117 amount=-1  
kerning first=89  second=111 amount=-3  
kerning first=89  second=32  amount=-1  
kerning first=89  second=44  amount=-5  
kerning first=89  second=45  amount=-3  
kerning first=89  second=46  amount=-5  
kerning first=89  second=58  amount=-2  
kerning first=89  second=105 amount=-1  
kerning first=89  second=65  amount=-3  
kerning first=89  second=97  amount=-3  
kerning first=89  second=101 amount=-3  
