info face="Impact" size=-22 bold=0 italic=0 charset="" unicode=1 stretchH=100 smooth=1 aa=1 padding=0,0,0,0 spacing=1,1 outline=1
common lineHeight=27 base=22 scaleW=512 scaleH=256 pages=1 packed=0 alphaChnl=1 redChnl=0 greenChnl=0 blueChnl=0
page id=0 file="Font22Impact_o1_0.png"
chars count=191
char id=32   x=506   y=42    width=5     height=3     xoffset=-2    yoffset=25    xadvance=4     page=0  chnl=15
char id=33   x=308   y=65    width=8     height=19    xoffset=-1    yoffset=4     xadvance=6     page=0  chnl=15
char id=34   x=402   y=83    width=11    height=7     xoffset=-1    yoffset=4     xadvance=8     page=0  chnl=15
char id=35   x=337   y=65    width=17    height=18    xoffset=-1    yoffset=5     xadvance=14    page=0  chnl=15
char id=36   x=369   y=0     width=14    height=22    xoffset=-1    yoffset=3     xadvance=12    page=0  chnl=15
char id=37   x=75    y=45    width=17    height=19    xoffset=-1    yoffset=4     xadvance=15    page=0  chnl=15
char id=38   x=0     y=87    width=16    height=16    xoffset=-1    yoffset=7     xadvance=13    page=0  chnl=15
char id=39   x=440   y=81    width=6     height=7     xoffset=-1    yoffset=4     xadvance=4     page=0  chnl=15
char id=40   x=502   y=22    width=9     height=19    xoffset=-1    yoffset=4     xadvance=7     page=0  chnl=15
char id=41   x=242   y=65    width=9     height=19    xoffset=-1    yoffset=4     xadvance=7     page=0  chnl=15
char id=42   x=414   y=83    width=9     height=7     xoffset=-1    yoffset=4     xadvance=6     page=0  chnl=15
char id=43   x=229   y=85    width=14    height=13    xoffset=-1    yoffset=7     xadvance=12    page=0  chnl=15
char id=44   x=433   y=82    width=6     height=7     xoffset=-1    yoffset=18    xadvance=4     page=0  chnl=15
char id=45   x=494   y=79    width=8     height=5     xoffset=-1    yoffset=12    xadvance=6     page=0  chnl=15
char id=46   x=8     y=104   width=6     height=5     xoffset=-1    yoffset=18    xadvance=4     page=0  chnl=15
char id=47   x=371   y=23    width=12    height=20    xoffset=-2    yoffset=3     xadvance=9     page=0  chnl=15
char id=48   x=281   y=45    width=14    height=19    xoffset=-1    yoffset=4     xadvance=12    page=0  chnl=15
char id=49   x=208   y=65    width=11    height=19    xoffset=-2    yoffset=4     xadvance=8     page=0  chnl=15
char id=50   x=157   y=65    width=13    height=19    xoffset=-1    yoffset=4     xadvance=11    page=0  chnl=15
char id=51   x=251   y=45    width=14    height=19    xoffset=-1    yoffset=4     xadvance=12    page=0  chnl=15
char id=52   x=126   y=45    width=15    height=19    xoffset=-2    yoffset=4     xadvance=11    page=0  chnl=15
char id=53   x=236   y=45    width=14    height=19    xoffset=-1    yoffset=4     xadvance=12    page=0  chnl=15
char id=54   x=221   y=45    width=14    height=19    xoffset=-1    yoffset=4     xadvance=12    page=0  chnl=15
char id=55   x=129   y=65    width=13    height=19    xoffset=-2    yoffset=4     xadvance=9     page=0  chnl=15
char id=56   x=206   y=45    width=14    height=19    xoffset=-1    yoffset=4     xadvance=12    page=0  chnl=15
char id=57   x=0     y=67    width=14    height=19    xoffset=-1    yoffset=4     xadvance=12    page=0  chnl=15
char id=58   x=259   y=85    width=7     height=13    xoffset=-1    yoffset=10    xadvance=4     page=0  chnl=15
char id=59   x=169   y=85    width=7     height=15    xoffset=-1    yoffset=10    xadvance=4     page=0  chnl=15
char id=60   x=214   y=85    width=14    height=13    xoffset=-1    yoffset=7     xadvance=12    page=0  chnl=15
char id=61   x=376   y=84    width=14    height=9     xoffset=-1    yoffset=9     xadvance=12    page=0  chnl=15
char id=62   x=244   y=85    width=14    height=13    xoffset=-1    yoffset=7     xadvance=12    page=0  chnl=15
char id=63   x=431   y=44    width=14    height=19    xoffset=-1    yoffset=4     xadvance=12    page=0  chnl=15
char id=64   x=38    y=24    width=19    height=20    xoffset=-1    yoffset=4     xadvance=17    page=0  chnl=15
char id=65   x=110   y=45    width=15    height=19    xoffset=-3    yoffset=4     xadvance=11    page=0  chnl=15
char id=66   x=356   y=45    width=14    height=19    xoffset=-1    yoffset=4     xadvance=12    page=0  chnl=15
char id=67   x=326   y=45    width=14    height=19    xoffset=-1    yoffset=4     xadvance=12    page=0  chnl=15
char id=68   x=311   y=45    width=14    height=19    xoffset=-1    yoffset=4     xadvance=12    page=0  chnl=15
char id=69   x=196   y=65    width=11    height=19    xoffset=-1    yoffset=4     xadvance=9     page=0  chnl=15
char id=70   x=171   y=65    width=12    height=19    xoffset=-1    yoffset=4     xadvance=9     page=0  chnl=15
char id=71   x=296   y=45    width=14    height=19    xoffset=-1    yoffset=4     xadvance=12    page=0  chnl=15
char id=72   x=341   y=45    width=14    height=19    xoffset=-1    yoffset=4     xadvance=12    page=0  chnl=15
char id=73   x=272   y=65    width=8     height=19    xoffset=-1    yoffset=4     xadvance=6     page=0  chnl=15
char id=74   x=220   y=65    width=10    height=19    xoffset=-2    yoffset=4     xadvance=7     page=0  chnl=15
char id=75   x=190   y=45    width=15    height=19    xoffset=-1    yoffset=4     xadvance=12    page=0  chnl=15
char id=76   x=184   y=65    width=11    height=19    xoffset=-1    yoffset=4     xadvance=8     page=0  chnl=15
char id=77   x=38    y=45    width=18    height=19    xoffset=-1    yoffset=4     xadvance=16    page=0  chnl=15
char id=78   x=491   y=42    width=14    height=19    xoffset=-1    yoffset=4     xadvance=12    page=0  chnl=15
char id=79   x=461   y=43    width=14    height=19    xoffset=-1    yoffset=4     xadvance=12    page=0  chnl=15
char id=80   x=45    y=65    width=13    height=19    xoffset=-1    yoffset=4     xadvance=11    page=0  chnl=15
char id=81   x=465   y=0     width=14    height=21    xoffset=-1    yoffset=4     xadvance=12    page=0  chnl=15
char id=82   x=416   y=44    width=14    height=19    xoffset=-1    yoffset=4     xadvance=12    page=0  chnl=15
char id=83   x=59    y=65    width=13    height=19    xoffset=-1    yoffset=4     xadvance=11    page=0  chnl=15
char id=84   x=401   y=44    width=14    height=19    xoffset=-2    yoffset=4     xadvance=10    page=0  chnl=15
char id=85   x=15    y=67    width=14    height=19    xoffset=-1    yoffset=4     xadvance=12    page=0  chnl=15
char id=86   x=158   y=45    width=15    height=19    xoffset=-3    yoffset=4     xadvance=11    page=0  chnl=15
char id=87   x=440   y=23    width=21    height=19    xoffset=-3    yoffset=4     xadvance=17    page=0  chnl=15
char id=88   x=142   y=45    width=15    height=19    xoffset=-3    yoffset=4     xadvance=11    page=0  chnl=15
char id=89   x=386   y=44    width=14    height=19    xoffset=-2    yoffset=4     xadvance=10    page=0  chnl=15
char id=90   x=73    y=65    width=13    height=19    xoffset=-2    yoffset=4     xadvance=9     page=0  chnl=15
char id=91   x=262   y=65    width=9     height=19    xoffset=-1    yoffset=4     xadvance=6     page=0  chnl=15
char id=92   x=408   y=23    width=11    height=20    xoffset=-1    yoffset=3     xadvance=9     page=0  chnl=15
char id=93   x=252   y=65    width=9     height=19    xoffset=-2    yoffset=4     xadvance=6     page=0  chnl=15
char id=94   x=347   y=84    width=13    height=10    xoffset=-1    yoffset=4     xadvance=11    page=0  chnl=15
char id=95   x=15    y=104   width=16    height=3     xoffset=-2    yoffset=23    xadvance=12    page=0  chnl=15
char id=96   x=474   y=80    width=9     height=5     xoffset=-2    yoffset=2     xadvance=7     page=0  chnl=15
char id=97   x=89    y=85    width=13    height=16    xoffset=-1    yoffset=7     xadvance=11    page=0  chnl=15
char id=98   x=87    y=65    width=13    height=19    xoffset=-1    yoffset=4     xadvance=11    page=0  chnl=15
char id=99   x=117   y=85    width=13    height=16    xoffset=-1    yoffset=7     xadvance=11    page=0  chnl=15
char id=100  x=115   y=65    width=13    height=19    xoffset=-1    yoffset=4     xadvance=11    page=0  chnl=15
char id=101  x=75    y=85    width=13    height=16    xoffset=-1    yoffset=7     xadvance=11    page=0  chnl=15
char id=102  x=231   y=65    width=10    height=19    xoffset=-2    yoffset=4     xadvance=6     page=0  chnl=15
char id=103  x=383   y=64    width=13    height=18    xoffset=-1    yoffset=7     xadvance=11    page=0  chnl=15
char id=104  x=371   y=44    width=14    height=19    xoffset=-1    yoffset=4     xadvance=12    page=0  chnl=15
char id=105  x=299   y=65    width=8     height=19    xoffset=-1    yoffset=4     xadvance=6     page=0  chnl=15
char id=106  x=28    y=24    width=9     height=21    xoffset=-2    yoffset=4     xadvance=6     page=0  chnl=15
char id=107  x=476   y=42    width=14    height=19    xoffset=-1    yoffset=4     xadvance=11    page=0  chnl=15
char id=108  x=290   y=65    width=8     height=19    xoffset=-1    yoffset=4     xadvance=6     page=0  chnl=15
char id=109  x=458   y=63    width=19    height=16    xoffset=-1    yoffset=7     xadvance=17    page=0  chnl=15
char id=110  x=17    y=87    width=14    height=16    xoffset=-1    yoffset=7     xadvance=12    page=0  chnl=15
char id=111  x=61    y=85    width=13    height=16    xoffset=-1    yoffset=7     xadvance=11    page=0  chnl=15
char id=112  x=369   y=65    width=13    height=18    xoffset=-1    yoffset=7     xadvance=11    page=0  chnl=15
char id=113  x=355   y=65    width=13    height=18    xoffset=-1    yoffset=7     xadvance=11    page=0  chnl=15
char id=114  x=157   y=85    width=11    height=16    xoffset=-1    yoffset=7     xadvance=8     page=0  chnl=15
char id=115  x=131   y=85    width=12    height=16    xoffset=-1    yoffset=7     xadvance=10    page=0  chnl=15
char id=116  x=411   y=64    width=11    height=18    xoffset=-2    yoffset=5     xadvance=7     page=0  chnl=15
char id=117  x=32    y=87    width=14    height=16    xoffset=-1    yoffset=7     xadvance=12    page=0  chnl=15
char id=118  x=498   y=62    width=13    height=16    xoffset=-3    yoffset=7     xadvance=9     page=0  chnl=15
char id=119  x=478   y=62    width=19    height=16    xoffset=-3    yoffset=7     xadvance=15    page=0  chnl=15
char id=120  x=103   y=85    width=13    height=16    xoffset=-3    yoffset=7     xadvance=9     page=0  chnl=15
char id=121  x=397   y=64    width=13    height=18    xoffset=-2    yoffset=7     xadvance=10    page=0  chnl=15
char id=122  x=144   y=85    width=12    height=16    xoffset=-2    yoffset=7     xadvance=8     page=0  chnl=15
char id=123  x=423   y=0     width=10    height=22    xoffset=-1    yoffset=4     xadvance=8     page=0  chnl=15
char id=124  x=441   y=0     width=6     height=22    xoffset=0     yoffset=4     xadvance=6     page=0  chnl=15
char id=125  x=412   y=0     width=10    height=22    xoffset=-1    yoffset=4     xadvance=8     page=0  chnl=15
char id=126  x=447   y=81    width=14    height=6     xoffset=-1    yoffset=10    xadvance=12    page=0  chnl=15
char id=160  x=506   y=46    width=5     height=3     xoffset=-2    yoffset=25    xadvance=4     page=0  chnl=15
char id=161  x=281   y=65    width=8     height=19    xoffset=-1    yoffset=6     xadvance=6     page=0  chnl=15
char id=162  x=0     y=25    width=13    height=21    xoffset=-1    yoffset=4     xadvance=11    page=0  chnl=15
char id=163  x=446   y=43    width=14    height=19    xoffset=-1    yoffset=4     xadvance=12    page=0  chnl=15
char id=164  x=267   y=85    width=14    height=12    xoffset=-1    yoffset=9     xadvance=12    page=0  chnl=15
char id=165  x=266   y=45    width=14    height=19    xoffset=-2    yoffset=4     xadvance=10    page=0  chnl=15
char id=166  x=434   y=0     width=6     height=22    xoffset=0     yoffset=4     xadvance=6     page=0  chnl=15
char id=167  x=480   y=0     width=13    height=21    xoffset=-1    yoffset=4     xadvance=11    page=0  chnl=15
char id=168  x=462   y=80    width=11    height=5     xoffset=-2    yoffset=2     xadvance=7     page=0  chnl=15
char id=169  x=317   y=65    width=19    height=18    xoffset=-1    yoffset=5     xadvance=17    page=0  chnl=15
char id=170  x=337   y=84    width=9     height=11    xoffset=-1    yoffset=4     xadvance=7     page=0  chnl=15
char id=171  x=188   y=85    width=10    height=14    xoffset=-1    yoffset=8     xadvance=8     page=0  chnl=15
char id=172  x=361   y=84    width=14    height=9     xoffset=-1    yoffset=9     xadvance=12    page=0  chnl=15
char id=173  x=503   y=79    width=8     height=5     xoffset=-1    yoffset=12    xadvance=6     page=0  chnl=15
char id=174  x=482   y=22    width=19    height=19    xoffset=-1    yoffset=4     xadvance=17    page=0  chnl=15
char id=175  x=32    y=104   width=16    height=3     xoffset=-2    yoffset=2     xadvance=12    page=0  chnl=15
char id=176  x=391   y=83    width=10    height=9     xoffset=-1    yoffset=4     xadvance=8     page=0  chnl=15
char id=177  x=423   y=64    width=14    height=17    xoffset=-1    yoffset=4     xadvance=12    page=0  chnl=15
char id=178  x=307   y=85    width=9     height=12    xoffset=-1    yoffset=4     xadvance=7     page=0  chnl=15
char id=179  x=297   y=85    width=9     height=12    xoffset=-1    yoffset=4     xadvance=7     page=0  chnl=15
char id=180  x=484   y=79    width=9     height=5     xoffset=0     yoffset=2     xadvance=7     page=0  chnl=15
char id=181  x=358   y=24    width=12    height=20    xoffset=-1    yoffset=7     xadvance=10    page=0  chnl=15
char id=182  x=448   y=0     width=16    height=21    xoffset=-1    yoffset=4     xadvance=13    page=0  chnl=15
char id=183  x=0     y=104   width=7     height=5     xoffset=0     yoffset=12    xadvance=7     page=0  chnl=15
char id=184  x=424   y=82    width=8     height=7     xoffset=-1    yoffset=21    xadvance=7     page=0  chnl=15
char id=185  x=317   y=84    width=8     height=12    xoffset=-2    yoffset=4     xadvance=5     page=0  chnl=15
char id=186  x=326   y=84    width=10    height=11    xoffset=-1    yoffset=4     xadvance=7     page=0  chnl=15
char id=187  x=177   y=85    width=10    height=14    xoffset=-1    yoffset=8     xadvance=8     page=0  chnl=15
char id=188  x=19    y=47    width=18    height=19    xoffset=-2    yoffset=4     xadvance=14    page=0  chnl=15
char id=189  x=57    y=45    width=17    height=19    xoffset=-2    yoffset=4     xadvance=14    page=0  chnl=15
char id=190  x=0     y=47    width=18    height=19    xoffset=-1    yoffset=4     xadvance=15    page=0  chnl=15
char id=191  x=30    y=67    width=14    height=19    xoffset=-1    yoffset=6     xadvance=12    page=0  chnl=15
char id=192  x=48    y=0     width=15    height=23    xoffset=-3    yoffset=0     xadvance=11    page=0  chnl=15
char id=193  x=32    y=0     width=15    height=23    xoffset=-3    yoffset=0     xadvance=11    page=0  chnl=15
char id=194  x=80    y=0     width=15    height=23    xoffset=-3    yoffset=0     xadvance=11    page=0  chnl=15
char id=195  x=64    y=0     width=15    height=23    xoffset=-3    yoffset=0     xadvance=11    page=0  chnl=15
char id=196  x=16    y=0     width=15    height=23    xoffset=-3    yoffset=0     xadvance=11    page=0  chnl=15
char id=197  x=0     y=0     width=15    height=24    xoffset=-3    yoffset=-1    xadvance=11    page=0  chnl=15
char id=198  x=462   y=22    width=19    height=19    xoffset=-2    yoffset=4     xadvance=16    page=0  chnl=15
char id=199  x=111   y=0     width=14    height=23    xoffset=-1    yoffset=4     xadvance=12    page=0  chnl=15
char id=200  x=325   y=0     width=11    height=23    xoffset=-1    yoffset=0     xadvance=9     page=0  chnl=15
char id=201  x=301   y=0     width=11    height=23    xoffset=-1    yoffset=0     xadvance=9     page=0  chnl=15
char id=202  x=276   y=0     width=12    height=23    xoffset=-1    yoffset=0     xadvance=9     page=0  chnl=15
char id=203  x=313   y=0     width=11    height=23    xoffset=-1    yoffset=0     xadvance=9     page=0  chnl=15
char id=204  x=359   y=0     width=9     height=23    xoffset=-2    yoffset=0     xadvance=6     page=0  chnl=15
char id=205  x=349   y=0     width=9     height=23    xoffset=-1    yoffset=0     xadvance=6     page=0  chnl=15
char id=206  x=337   y=0     width=11    height=23    xoffset=-2    yoffset=0     xadvance=6     page=0  chnl=15
char id=207  x=289   y=0     width=11    height=23    xoffset=-2    yoffset=0     xadvance=6     page=0  chnl=15
char id=208  x=174   y=45    width=15    height=19    xoffset=-2    yoffset=4     xadvance=12    page=0  chnl=15
char id=209  x=171   y=0     width=14    height=23    xoffset=-1    yoffset=0     xadvance=12    page=0  chnl=15
char id=210  x=186   y=0     width=14    height=23    xoffset=-1    yoffset=0     xadvance=12    page=0  chnl=15
char id=211  x=231   y=0     width=14    height=23    xoffset=-1    yoffset=0     xadvance=12    page=0  chnl=15
char id=212  x=246   y=0     width=14    height=23    xoffset=-1    yoffset=0     xadvance=12    page=0  chnl=15
char id=213  x=156   y=0     width=14    height=23    xoffset=-1    yoffset=0     xadvance=12    page=0  chnl=15
char id=214  x=141   y=0     width=14    height=23    xoffset=-1    yoffset=0     xadvance=12    page=0  chnl=15
char id=215  x=282   y=85    width=14    height=12    xoffset=-1    yoffset=7     xadvance=12    page=0  chnl=15
char id=216  x=93    y=45    width=16    height=19    xoffset=-2    yoffset=4     xadvance=12    page=0  chnl=15
char id=217  x=126   y=0     width=14    height=23    xoffset=-1    yoffset=0     xadvance=12    page=0  chnl=15
char id=218  x=201   y=0     width=14    height=23    xoffset=-1    yoffset=0     xadvance=12    page=0  chnl=15
char id=219  x=261   y=0     width=14    height=23    xoffset=-1    yoffset=0     xadvance=12    page=0  chnl=15
char id=220  x=216   y=0     width=14    height=23    xoffset=-1    yoffset=0     xadvance=12    page=0  chnl=15
char id=221  x=96    y=0     width=14    height=23    xoffset=-2    yoffset=0     xadvance=10    page=0  chnl=15
char id=222  x=143   y=65    width=13    height=19    xoffset=-1    yoffset=4     xadvance=11    page=0  chnl=15
char id=223  x=58    y=24    width=14    height=20    xoffset=-1    yoffset=3     xadvance=12    page=0  chnl=15
char id=224  x=148   y=24    width=13    height=20    xoffset=-1    yoffset=3     xadvance=11    page=0  chnl=15
char id=225  x=162   y=24    width=13    height=20    xoffset=-1    yoffset=3     xadvance=11    page=0  chnl=15
char id=226  x=176   y=24    width=13    height=20    xoffset=-1    yoffset=3     xadvance=11    page=0  chnl=15
char id=227  x=302   y=24    width=13    height=20    xoffset=-1    yoffset=3     xadvance=11    page=0  chnl=15
char id=228  x=190   y=24    width=13    height=20    xoffset=-1    yoffset=3     xadvance=11    page=0  chnl=15
char id=229  x=14    y=25    width=13    height=21    xoffset=-1    yoffset=2     xadvance=11    page=0  chnl=15
char id=230  x=438   y=64    width=19    height=16    xoffset=-1    yoffset=7     xadvance=17    page=0  chnl=15
char id=231  x=204   y=24    width=13    height=20    xoffset=-1    yoffset=7     xadvance=11    page=0  chnl=15
char id=232  x=246   y=24    width=13    height=20    xoffset=-1    yoffset=3     xadvance=11    page=0  chnl=15
char id=233  x=218   y=24    width=13    height=20    xoffset=-1    yoffset=3     xadvance=11    page=0  chnl=15
char id=234  x=232   y=24    width=13    height=20    xoffset=-1    yoffset=3     xadvance=11    page=0  chnl=15
char id=235  x=260   y=24    width=13    height=20    xoffset=-1    yoffset=3     xadvance=11    page=0  chnl=15
char id=236  x=420   y=23    width=9     height=20    xoffset=-2    yoffset=3     xadvance=6     page=0  chnl=15
char id=237  x=430   y=23    width=9     height=20    xoffset=-1    yoffset=3     xadvance=6     page=0  chnl=15
char id=238  x=384   y=23    width=11    height=20    xoffset=-2    yoffset=3     xadvance=6     page=0  chnl=15
char id=239  x=396   y=23    width=11    height=20    xoffset=-2    yoffset=3     xadvance=6     page=0  chnl=15
char id=240  x=101   y=65    width=13    height=19    xoffset=-1    yoffset=4     xadvance=11    page=0  chnl=15
char id=241  x=73    y=24    width=14    height=20    xoffset=-1    yoffset=3     xadvance=12    page=0  chnl=15
char id=242  x=274   y=24    width=13    height=20    xoffset=-1    yoffset=3     xadvance=11    page=0  chnl=15
char id=243  x=288   y=24    width=13    height=20    xoffset=-1    yoffset=3     xadvance=11    page=0  chnl=15
char id=244  x=344   y=24    width=13    height=20    xoffset=-1    yoffset=3     xadvance=11    page=0  chnl=15
char id=245  x=316   y=24    width=13    height=20    xoffset=-1    yoffset=3     xadvance=11    page=0  chnl=15
char id=246  x=330   y=24    width=13    height=20    xoffset=-1    yoffset=3     xadvance=11    page=0  chnl=15
char id=247  x=199   y=85    width=14    height=13    xoffset=-1    yoffset=7     xadvance=12    page=0  chnl=15
char id=248  x=47    y=85    width=13    height=16    xoffset=-1    yoffset=7     xadvance=11    page=0  chnl=15
char id=249  x=88    y=24    width=14    height=20    xoffset=-1    yoffset=3     xadvance=12    page=0  chnl=15
char id=250  x=103   y=24    width=14    height=20    xoffset=-1    yoffset=3     xadvance=12    page=0  chnl=15
char id=251  x=118   y=24    width=14    height=20    xoffset=-1    yoffset=3     xadvance=12    page=0  chnl=15
char id=252  x=133   y=24    width=14    height=20    xoffset=-1    yoffset=3     xadvance=12    page=0  chnl=15
char id=253  x=398   y=0     width=13    height=22    xoffset=-2    yoffset=3     xadvance=10    page=0  chnl=15
char id=254  x=494   y=0     width=13    height=21    xoffset=-1    yoffset=4     xadvance=11    page=0  chnl=15
char id=255  x=384   y=0     width=13    height=22    xoffset=-2    yoffset=3     xadvance=10    page=0  chnl=15
kernings count=274
kerning first=40  second=65  amount=1   
kerning first=40  second=196 amount=1   
kerning first=40  second=197 amount=1   
kerning first=40  second=198 amount=1   
kerning first=40  second=192 amount=1   
kerning first=40  second=195 amount=1   
kerning first=40  second=194 amount=1   
kerning first=40  second=193 amount=1   
kerning first=193 second=193 amount=1   
kerning first=193 second=194 amount=1   
kerning first=193 second=195 amount=1   
kerning first=193 second=192 amount=1   
kerning first=53  second=49  amount=-1  
kerning first=193 second=198 amount=1   
kerning first=53  second=55  amount=-1  
kerning first=193 second=197 amount=1   
kerning first=193 second=196 amount=1   
kerning first=193 second=125 amount=1   
kerning first=193 second=122 amount=1   
kerning first=193 second=120 amount=1   
kerning first=193 second=93  amount=1   
kerning first=65  second=41  amount=1   
kerning first=65  second=44  amount=1   
kerning first=65  second=46  amount=1   
kerning first=65  second=47  amount=1   
kerning first=65  second=65  amount=1   
kerning first=65  second=74  amount=1   
kerning first=65  second=84  amount=-1  
kerning first=193 second=90  amount=1   
kerning first=193 second=89  amount=-1  
kerning first=65  second=88  amount=1   
kerning first=65  second=89  amount=-1  
kerning first=65  second=90  amount=1   
kerning first=65  second=93  amount=1   
kerning first=65  second=120 amount=1   
kerning first=65  second=122 amount=1   
kerning first=65  second=125 amount=1   
kerning first=65  second=196 amount=1   
kerning first=65  second=197 amount=1   
kerning first=65  second=198 amount=1   
kerning first=193 second=88  amount=1   
kerning first=65  second=192 amount=1   
kerning first=65  second=195 amount=1   
kerning first=193 second=84  amount=-1  
kerning first=65  second=194 amount=1   
kerning first=65  second=193 amount=1   
kerning first=193 second=74  amount=1   
kerning first=70  second=44  amount=-1  
kerning first=70  second=46  amount=-1  
kerning first=193 second=65  amount=1   
kerning first=193 second=47  amount=1   
kerning first=193 second=46  amount=1   
kerning first=193 second=44  amount=1   
kerning first=193 second=41  amount=1   
kerning first=194 second=193 amount=1   
kerning first=194 second=194 amount=1   
kerning first=194 second=195 amount=1   
kerning first=194 second=192 amount=1   
kerning first=194 second=198 amount=1   
kerning first=194 second=197 amount=1   
kerning first=194 second=196 amount=1   
kerning first=194 second=125 amount=1   
kerning first=194 second=122 amount=1   
kerning first=194 second=120 amount=1   
kerning first=194 second=93  amount=1   
kerning first=194 second=90  amount=1   
kerning first=194 second=89  amount=-1  
kerning first=194 second=88  amount=1   
kerning first=194 second=84  amount=-1  
kerning first=194 second=74  amount=1   
kerning first=194 second=65  amount=1   
kerning first=194 second=47  amount=1   
kerning first=194 second=46  amount=1   
kerning first=194 second=44  amount=1   
kerning first=194 second=41  amount=1   
kerning first=195 second=193 amount=1   
kerning first=195 second=194 amount=1   
kerning first=195 second=195 amount=1   
kerning first=195 second=192 amount=1   
kerning first=195 second=198 amount=1   
kerning first=195 second=197 amount=1   
kerning first=195 second=196 amount=1   
kerning first=195 second=125 amount=1   
kerning first=195 second=122 amount=1   
kerning first=195 second=120 amount=1   
kerning first=195 second=93  amount=1   
kerning first=195 second=90  amount=1   
kerning first=76  second=44  amount=1   
kerning first=76  second=46  amount=1   
kerning first=76  second=65  amount=1   
kerning first=195 second=89  amount=-1  
kerning first=195 second=88  amount=1   
kerning first=195 second=84  amount=-1  
kerning first=195 second=74  amount=1   
kerning first=195 second=65  amount=1   
kerning first=76  second=84  amount=-2  
kerning first=76  second=86  amount=-1  
kerning first=76  second=87  amount=-1  
kerning first=195 second=47  amount=1   
kerning first=76  second=89  amount=-1  
kerning first=195 second=46  amount=1   
kerning first=76  second=121 amount=-1  
kerning first=76  second=196 amount=1   
kerning first=76  second=197 amount=1   
kerning first=195 second=44  amount=1   
kerning first=195 second=41  amount=1   
kerning first=76  second=198 amount=1   
kerning first=192 second=193 amount=1   
kerning first=76  second=192 amount=1   
kerning first=76  second=195 amount=1   
kerning first=192 second=194 amount=1   
kerning first=192 second=195 amount=1   
kerning first=192 second=192 amount=1   
kerning first=76  second=194 amount=1   
kerning first=76  second=193 amount=1   
kerning first=192 second=198 amount=1   
kerning first=80  second=44  amount=-3  
kerning first=80  second=46  amount=-3  
kerning first=80  second=47  amount=-2  
kerning first=80  second=65  amount=-1  
kerning first=80  second=74  amount=-1  
kerning first=80  second=196 amount=-1  
kerning first=80  second=197 amount=-1  
kerning first=80  second=198 amount=-1  
kerning first=192 second=197 amount=1   
kerning first=80  second=192 amount=-1  
kerning first=80  second=195 amount=-1  
kerning first=80  second=194 amount=-1  
kerning first=80  second=193 amount=-1  
kerning first=84  second=44  amount=-2  
kerning first=84  second=45  amount=-1  
kerning first=84  second=46  amount=-2  
kerning first=84  second=47  amount=-2  
kerning first=84  second=65  amount=-1  
kerning first=84  second=74  amount=-1  
kerning first=84  second=86  amount=1   
kerning first=192 second=196 amount=1   
kerning first=84  second=89  amount=1   
kerning first=192 second=125 amount=1   
kerning first=84  second=97  amount=-1  
kerning first=84  second=99  amount=-1  
kerning first=84  second=101 amount=-1  
kerning first=192 second=122 amount=1   
kerning first=192 second=120 amount=1   
kerning first=192 second=93  amount=1   
kerning first=84  second=196 amount=-1  
kerning first=84  second=197 amount=-1  
kerning first=84  second=231 amount=-1  
kerning first=84  second=198 amount=-1  
kerning first=84  second=230 amount=-1  
kerning first=192 second=90  amount=1   
kerning first=84  second=192 amount=-1  
kerning first=84  second=195 amount=-1  
kerning first=192 second=89  amount=-1  
kerning first=84  second=194 amount=-1  
kerning first=84  second=193 amount=-1  
kerning first=86  second=44  amount=-1  
kerning first=86  second=46  amount=-1  
kerning first=86  second=47  amount=-1  
kerning first=192 second=88  amount=1   
kerning first=86  second=74  amount=-1  
kerning first=86  second=89  amount=1   
kerning first=192 second=84  amount=-1  
kerning first=192 second=74  amount=1   
kerning first=192 second=65  amount=1   
kerning first=192 second=47  amount=1   
kerning first=192 second=46  amount=1   
kerning first=192 second=44  amount=1   
kerning first=192 second=41  amount=1   
kerning first=197 second=193 amount=1   
kerning first=197 second=194 amount=1   
kerning first=197 second=195 amount=1   
kerning first=87  second=44  amount=-1  
kerning first=87  second=46  amount=-1  
kerning first=87  second=47  amount=-1  
kerning first=197 second=192 amount=1   
kerning first=87  second=74  amount=-1  
kerning first=197 second=198 amount=1   
kerning first=197 second=197 amount=1   
kerning first=197 second=196 amount=1   
kerning first=197 second=125 amount=1   
kerning first=197 second=122 amount=1   
kerning first=197 second=120 amount=1   
kerning first=197 second=93  amount=1   
kerning first=197 second=90  amount=1   
kerning first=197 second=89  amount=-1  
kerning first=197 second=88  amount=1   
kerning first=197 second=84  amount=-1  
kerning first=88  second=44  amount=1   
kerning first=88  second=46  amount=1   
kerning first=88  second=65  amount=1   
kerning first=197 second=74  amount=1   
kerning first=88  second=196 amount=1   
kerning first=88  second=197 amount=1   
kerning first=88  second=198 amount=1   
kerning first=197 second=65  amount=1   
kerning first=88  second=192 amount=1   
kerning first=88  second=195 amount=1   
kerning first=88  second=194 amount=1   
kerning first=88  second=193 amount=1   
kerning first=89  second=44  amount=-2  
kerning first=89  second=46  amount=-2  
kerning first=89  second=47  amount=-2  
kerning first=89  second=65  amount=-1  
kerning first=89  second=74  amount=-1  
kerning first=89  second=97  amount=-1  
kerning first=89  second=99  amount=-1  
kerning first=89  second=100 amount=-1  
kerning first=89  second=101 amount=-1  
kerning first=89  second=103 amount=-1  
kerning first=89  second=111 amount=-1  
kerning first=89  second=113 amount=-1  
kerning first=89  second=115 amount=-1  
kerning first=89  second=196 amount=-1  
kerning first=89  second=197 amount=-1  
kerning first=89  second=231 amount=-1  
kerning first=89  second=198 amount=-1  
kerning first=89  second=230 amount=-1  
kerning first=197 second=47  amount=1   
kerning first=89  second=192 amount=-1  
kerning first=89  second=195 amount=-1  
kerning first=197 second=46  amount=1   
kerning first=89  second=194 amount=-1  
kerning first=89  second=193 amount=-1  
kerning first=197 second=44  amount=1   
kerning first=197 second=41  amount=1   
kerning first=196 second=193 amount=1   
kerning first=90  second=121 amount=1   
kerning first=196 second=194 amount=1   
kerning first=196 second=195 amount=1   
kerning first=196 second=192 amount=1   
kerning first=196 second=198 amount=1   
kerning first=196 second=197 amount=1   
kerning first=196 second=196 amount=1   
kerning first=196 second=125 amount=1   
kerning first=196 second=122 amount=1   
kerning first=91  second=65  amount=1   
kerning first=91  second=196 amount=1   
kerning first=91  second=197 amount=1   
kerning first=91  second=198 amount=1   
kerning first=91  second=192 amount=1   
kerning first=91  second=195 amount=1   
kerning first=91  second=194 amount=1   
kerning first=91  second=193 amount=1   
kerning first=196 second=120 amount=1   
kerning first=196 second=93  amount=1   
kerning first=102 second=121 amount=1   
kerning first=114 second=44  amount=-2  
kerning first=114 second=46  amount=-2  
kerning first=196 second=90  amount=1   
kerning first=196 second=89  amount=-1  
kerning first=196 second=88  amount=1   
kerning first=196 second=84  amount=-1  
kerning first=196 second=74  amount=1   
kerning first=196 second=65  amount=1   
kerning first=196 second=47  amount=1   
kerning first=196 second=46  amount=1   
kerning first=116 second=44  amount=1   
kerning first=116 second=46  amount=1   
kerning first=196 second=44  amount=1   
kerning first=196 second=41  amount=1   
kerning first=123 second=193 amount=1   
kerning first=123 second=194 amount=1   
kerning first=123 second=195 amount=1   
kerning first=123 second=192 amount=1   
kerning first=118 second=102 amount=1   
kerning first=118 second=116 amount=1   
kerning first=118 second=121 amount=1   
kerning first=123 second=198 amount=1   
kerning first=123 second=197 amount=1   
kerning first=123 second=196 amount=1   
kerning first=123 second=65  amount=1   
kerning first=122 second=118 amount=1   
kerning first=119 second=121 amount=1   
