info face="Marlett" size=-30 bold=0 italic=0 charset="" unicode=1 stretchH=100 smooth=1 aa=1 padding=0,0,0,0 spacing=1,1 outline=1
common lineHeight=35 base=28 scaleW=512 scaleH=256 pages=1 packed=0 alphaChnl=1 redChnl=0 greenChnl=0 blueChnl=0
page id=0 file="Font30Marlett_o1_0.png"
chars count=191
char id=32   x=506   y=0     width=5     height=3     xoffset=-2    yoffset=33    xadvance=8     page=0  chnl=15
char id=33   x=501   y=31    width=7     height=24    xoffset=1     yoffset=5     xadvance=9     page=0  chnl=15
char id=34   x=185   y=155   width=12    height=10    xoffset=0     yoffset=5     xadvance=11    page=0  chnl=15
char id=35   x=467   y=56    width=20    height=24    xoffset=-2    yoffset=5     xadvance=17    page=0  chnl=15
char id=36   x=250   y=31    width=17    height=28    xoffset=0     yoffset=4     xadvance=17    page=0  chnl=15
char id=37   x=418   y=31    width=27    height=24    xoffset=0     yoffset=5     xadvance=27    page=0  chnl=15
char id=38   x=294   y=57    width=21    height=24    xoffset=0     yoffset=5     xadvance=20    page=0  chnl=15
char id=39   x=505   y=130   width=6     height=10    xoffset=0     yoffset=5     xadvance=6     page=0  chnl=15
char id=40   x=494   y=0     width=11    height=30    xoffset=0     yoffset=5     xadvance=10    page=0  chnl=15
char id=41   x=0     y=32    width=11    height=30    xoffset=0     yoffset=5     xadvance=10    page=0  chnl=15
char id=42   x=170   y=155   width=14    height=11    xoffset=-1    yoffset=5     xadvance=12    page=0  chnl=15
char id=43   x=431   y=130   width=18    height=17    xoffset=0     yoffset=9     xadvance=18    page=0  chnl=15
char id=44   x=221   y=154   width=6     height=9     xoffset=1     yoffset=24    xadvance=8     page=0  chnl=15
char id=45   x=310   y=150   width=12    height=5     xoffset=-1    yoffset=18    xadvance=10    page=0  chnl=15
char id=46   x=356   y=150   width=6     height=5     xoffset=1     yoffset=24    xadvance=8     page=0  chnl=15
char id=47   x=106   y=112   width=12    height=24    xoffset=-2    yoffset=5     xadvance=8     page=0  chnl=15
char id=48   x=460   y=81    width=17    height=24    xoffset=0     yoffset=5     xadvance=17    page=0  chnl=15
char id=49   x=145   y=111   width=12    height=24    xoffset=1     yoffset=5     xadvance=17    page=0  chnl=15
char id=50   x=258   y=85    width=18    height=24    xoffset=-1    yoffset=5     xadvance=17    page=0  chnl=15
char id=51   x=0     y=113   width=17    height=24    xoffset=0     yoffset=5     xadvance=17    page=0  chnl=15
char id=52   x=239   y=85    width=18    height=24    xoffset=-1    yoffset=5     xadvance=17    page=0  chnl=15
char id=53   x=18    y=113   width=17    height=24    xoffset=0     yoffset=5     xadvance=17    page=0  chnl=15
char id=54   x=220   y=86    width=18    height=24    xoffset=-1    yoffset=5     xadvance=17    page=0  chnl=15
char id=55   x=424   y=81    width=17    height=24    xoffset=0     yoffset=5     xadvance=17    page=0  chnl=15
char id=56   x=36    y=113   width=17    height=24    xoffset=0     yoffset=5     xadvance=17    page=0  chnl=15
char id=57   x=54    y=112   width=17    height=24    xoffset=0     yoffset=5     xadvance=17    page=0  chnl=15
char id=58   x=405   y=130   width=6     height=18    xoffset=1     yoffset=11    xadvance=8     page=0  chnl=15
char id=59   x=87    y=137   width=6     height=22    xoffset=1     yoffset=11    xadvance=8     page=0  chnl=15
char id=60   x=450   y=130   width=18    height=17    xoffset=0     yoffset=9     xadvance=18    page=0  chnl=15
char id=61   x=151   y=155   width=18    height=11    xoffset=0     yoffset=12    xadvance=18    page=0  chnl=15
char id=62   x=412   y=130   width=18    height=17    xoffset=0     yoffset=9     xadvance=18    page=0  chnl=15
char id=63   x=334   y=82    width=17    height=24    xoffset=0     yoffset=5     xadvance=17    page=0  chnl=15
char id=64   x=23    y=0     width=30    height=30    xoffset=0     yoffset=5     xadvance=30    page=0  chnl=15
char id=65   x=132   y=61    width=23    height=24    xoffset=-2    yoffset=5     xadvance=19    page=0  chnl=15
char id=66   x=62    y=87    width=19    height=24    xoffset=1     yoffset=5     xadvance=20    page=0  chnl=15
char id=67   x=204   y=61    width=22    height=24    xoffset=0     yoffset=5     xadvance=22    page=0  chnl=15
char id=68   x=316   y=57    width=21    height=24    xoffset=1     yoffset=5     xadvance=22    page=0  chnl=15
char id=69   x=42    y=87    width=19    height=24    xoffset=1     yoffset=5     xadvance=20    page=0  chnl=15
char id=70   x=352   y=82    width=17    height=24    xoffset=1     yoffset=5     xadvance=18    page=0  chnl=15
char id=71   x=180   y=61    width=23    height=24    xoffset=0     yoffset=5     xadvance=23    page=0  chnl=15
char id=72   x=21    y=88    width=20    height=24    xoffset=1     yoffset=5     xadvance=22    page=0  chnl=15
char id=73   x=182   y=111   width=6     height=24    xoffset=0     yoffset=5     xadvance=7     page=0  chnl=15
char id=74   x=496   y=81    width=15    height=24    xoffset=-1    yoffset=5     xadvance=15    page=0  chnl=15
char id=75   x=338   y=57    width=21    height=24    xoffset=1     yoffset=5     xadvance=20    page=0  chnl=15
char id=76   x=370   y=81    width=17    height=24    xoffset=1     yoffset=5     xadvance=17    page=0  chnl=15
char id=77   x=81    y=62    width=25    height=24    xoffset=0     yoffset=5     xadvance=25    page=0  chnl=15
char id=78   x=446   y=56    width=20    height=24    xoffset=1     yoffset=5     xadvance=22    page=0  chnl=15
char id=79   x=156   y=61    width=23    height=24    xoffset=0     yoffset=5     xadvance=23    page=0  chnl=15
char id=80   x=82    y=87    width=19    height=24    xoffset=1     yoffset=5     xadvance=20    page=0  chnl=15
char id=81   x=286   y=31    width=24    height=25    xoffset=0     yoffset=5     xadvance=23    page=0  chnl=15
char id=82   x=227   y=60    width=22    height=24    xoffset=1     yoffset=5     xadvance=22    page=0  chnl=15
char id=83   x=0     y=88    width=20    height=24    xoffset=0     yoffset=5     xadvance=20    page=0  chnl=15
char id=84   x=382   y=56    width=21    height=24    xoffset=-1    yoffset=5     xadvance=19    page=0  chnl=15
char id=85   x=404   y=56    width=20    height=24    xoffset=1     yoffset=5     xadvance=22    page=0  chnl=15
char id=86   x=250   y=60    width=21    height=24    xoffset=-1    yoffset=5     xadvance=19    page=0  chnl=15
char id=87   x=385   y=31    width=32    height=24    xoffset=-1    yoffset=5     xadvance=30    page=0  chnl=15
char id=88   x=360   y=56    width=21    height=24    xoffset=-1    yoffset=5     xadvance=19    page=0  chnl=15
char id=89   x=272   y=60    width=21    height=24    xoffset=-1    yoffset=5     xadvance=19    page=0  chnl=15
char id=90   x=425   y=56    width=20    height=24    xoffset=-1    yoffset=5     xadvance=18    page=0  chnl=15
char id=91   x=45    y=31    width=9     height=30    xoffset=0     yoffset=5     xadvance=8     page=0  chnl=15
char id=92   x=132   y=111   width=12    height=24    xoffset=-2    yoffset=5     xadvance=8     page=0  chnl=15
char id=93   x=35    y=31    width=9     height=30    xoffset=-1    yoffset=5     xadvance=8     page=0  chnl=15
char id=94   x=51    y=161   width=16    height=14    xoffset=-1    yoffset=5     xadvance=14    page=0  chnl=15
char id=95   x=266   y=153   width=21    height=5     xoffset=-2    yoffset=30    xadvance=17    page=0  chnl=15
char id=96   x=248   y=154   width=8     height=6     xoffset=0     yoffset=5     xadvance=10    page=0  chnl=15
char id=97   x=322   y=131   width=17    height=18    xoffset=-1    yoffset=11    xadvance=16    page=0  chnl=15
char id=98   x=315   y=82    width=18    height=24    xoffset=0     yoffset=5     xadvance=17    page=0  chnl=15
char id=99   x=358   y=131   width=16    height=18    xoffset=-1    yoffset=11    xadvance=15    page=0  chnl=15
char id=100  x=182   y=86    width=18    height=24    xoffset=-1    yoffset=5     xadvance=17    page=0  chnl=15
char id=101  x=212   y=135   width=18    height=18    xoffset=-1    yoffset=11    xadvance=16    page=0  chnl=15
char id=102  x=119   y=112   width=12    height=24    xoffset=-1    yoffset=5     xadvance=8     page=0  chnl=15
char id=103  x=201   y=86    width=18    height=24    xoffset=-1    yoffset=11    xadvance=17    page=0  chnl=15
char id=104  x=388   y=81    width=17    height=24    xoffset=0     yoffset=5     xadvance=17    page=0  chnl=15
char id=105  x=174   y=111   width=7     height=24    xoffset=0     yoffset=5     xadvance=7     page=0  chnl=15
char id=106  x=24    y=31    width=10    height=30    xoffset=-3    yoffset=5     xadvance=7     page=0  chnl=15
char id=107  x=89    y=112   width=16    height=24    xoffset=0     yoffset=5     xadvance=15    page=0  chnl=15
char id=108  x=166   y=111   width=7     height=24    xoffset=0     yoffset=5     xadvance=7     page=0  chnl=15
char id=109  x=162   y=136   width=25    height=18    xoffset=0     yoffset=11    xadvance=25    page=0  chnl=15
char id=110  x=250   y=134   width=17    height=18    xoffset=0     yoffset=11    xadvance=17    page=0  chnl=15
char id=111  x=231   y=135   width=18    height=18    xoffset=-1    yoffset=11    xadvance=16    page=0  chnl=15
char id=112  x=277   y=85    width=18    height=24    xoffset=0     yoffset=11    xadvance=17    page=0  chnl=15
char id=113  x=296   y=82    width=18    height=24    xoffset=-1    yoffset=11    xadvance=17    page=0  chnl=15
char id=114  x=392   y=130   width=12    height=18    xoffset=0     yoffset=11    xadvance=10    page=0  chnl=15
char id=115  x=268   y=134   width=17    height=18    xoffset=-1    yoffset=11    xadvance=15    page=0  chnl=15
char id=116  x=480   y=106   width=11    height=23    xoffset=-1    yoffset=6     xadvance=8     page=0  chnl=15
char id=117  x=304   y=131   width=17    height=18    xoffset=0     yoffset=11    xadvance=17    page=0  chnl=15
char id=118  x=340   y=131   width=17    height=18    xoffset=-1    yoffset=11    xadvance=15    page=0  chnl=15
char id=119  x=188   y=136   width=23    height=18    xoffset=-1    yoffset=11    xadvance=21    page=0  chnl=15
char id=120  x=375   y=131   width=16    height=18    xoffset=-1    yoffset=11    xadvance=14    page=0  chnl=15
char id=121  x=406   y=81    width=17    height=24    xoffset=-1    yoffset=11    xadvance=15    page=0  chnl=15
char id=122  x=286   y=134   width=17    height=18    xoffset=-1    yoffset=11    xadvance=15    page=0  chnl=15
char id=123  x=468   y=0     width=12    height=30    xoffset=-1    yoffset=5     xadvance=10    page=0  chnl=15
char id=124  x=80    y=31    width=6     height=30    xoffset=1     yoffset=5     xadvance=8     page=0  chnl=15
char id=125  x=481   y=0     width=12    height=30    xoffset=-1    yoffset=5     xadvance=10    page=0  chnl=15
char id=126  x=228   y=154   width=19    height=8     xoffset=0     yoffset=14    xadvance=18    page=0  chnl=15
char id=160  x=363   y=150   width=5     height=3     xoffset=-2    yoffset=33    xadvance=8     page=0  chnl=15
char id=161  x=158   y=111   width=7     height=24    xoffset=1     yoffset=11    xadvance=9     page=0  chnl=15
char id=162  x=450   y=0     width=17    height=30    xoffset=0     yoffset=5     xadvance=17    page=0  chnl=15
char id=163  x=122   y=86    width=19    height=24    xoffset=-1    yoffset=5     xadvance=17    page=0  chnl=15
char id=164  x=469   y=130   width=17    height=16    xoffset=0     yoffset=10    xadvance=17    page=0  chnl=15
char id=165  x=488   y=56    width=20    height=24    xoffset=-2    yoffset=5     xadvance=17    page=0  chnl=15
char id=166  x=73    y=31    width=6     height=30    xoffset=1     yoffset=5     xadvance=8     page=0  chnl=15
char id=167  x=432   y=0     width=17    height=30    xoffset=0     yoffset=5     xadvance=17    page=0  chnl=15
char id=168  x=323   y=150   width=12    height=5     xoffset=-1    yoffset=5     xadvance=10    page=0  chnl=15
char id=169  x=54    y=62    width=26    height=24    xoffset=-2    yoffset=5     xadvance=22    page=0  chnl=15
char id=170  x=82    y=160   width=13    height=13    xoffset=-1    yoffset=5     xadvance=11    page=0  chnl=15
char id=171  x=34    y=161   width=16    height=15    xoffset=0     yoffset=13    xadvance=17    page=0  chnl=15
char id=172  x=132   y=155   width=18    height=11    xoffset=0     yoffset=12    xadvance=18    page=0  chnl=15
char id=173  x=336   y=150   width=12    height=5     xoffset=-1    yoffset=18    xadvance=10    page=0  chnl=15
char id=174  x=27    y=62    width=26    height=24    xoffset=-2    yoffset=5     xadvance=22    page=0  chnl=15
char id=175  x=288   y=153   width=21    height=5     xoffset=-2    yoffset=1     xadvance=17    page=0  chnl=15
char id=176  x=198   y=155   width=12    height=10    xoffset=0     yoffset=5     xadvance=12    page=0  chnl=15
char id=177  x=94    y=137   width=18    height=20    xoffset=-1    yoffset=9     xadvance=16    page=0  chnl=15
char id=178  x=96    y=158   width=12    height=13    xoffset=-1    yoffset=5     xadvance=10    page=0  chnl=15
char id=179  x=109   y=158   width=12    height=13    xoffset=-1    yoffset=5     xadvance=10    page=0  chnl=15
char id=180  x=257   y=153   width=8     height=6     xoffset=2     yoffset=5     xadvance=10    page=0  chnl=15
char id=181  x=72    y=112   width=16    height=24    xoffset=0     yoffset=11    xadvance=17    page=0  chnl=15
char id=182  x=156   y=31    width=20    height=29    xoffset=-2    yoffset=5     xadvance=16    page=0  chnl=15
char id=183  x=349   y=150   width=6     height=5     xoffset=2     yoffset=15    xadvance=10    page=0  chnl=15
char id=184  x=211   y=155   width=9     height=9     xoffset=0     yoffset=27    xadvance=10    page=0  chnl=15
char id=185  x=122   y=158   width=9     height=13    xoffset=0     yoffset=5     xadvance=10    page=0  chnl=15
char id=186  x=68    y=160   width=13    height=13    xoffset=-1    yoffset=5     xadvance=11    page=0  chnl=15
char id=187  x=17    y=161   width=16    height=15    xoffset=1     yoffset=13    xadvance=17    page=0  chnl=15
char id=188  x=0     y=63    width=26    height=24    xoffset=0     yoffset=5     xadvance=25    page=0  chnl=15
char id=189  x=474   y=31    width=26    height=24    xoffset=0     yoffset=5     xadvance=25    page=0  chnl=15
char id=190  x=446   y=31    width=27    height=24    xoffset=-1    yoffset=5     xadvance=25    page=0  chnl=15
char id=191  x=442   y=81    width=17    height=24    xoffset=0     yoffset=11    xadvance=18    page=0  chnl=15
char id=192  x=150   y=0     width=23    height=30    xoffset=-2    yoffset=-1    xadvance=20    page=0  chnl=15
char id=193  x=222   y=0     width=23    height=30    xoffset=-2    yoffset=-1    xadvance=20    page=0  chnl=15
char id=194  x=198   y=0     width=23    height=30    xoffset=-2    yoffset=-1    xadvance=20    page=0  chnl=15
char id=195  x=174   y=0     width=23    height=30    xoffset=-2    yoffset=-1    xadvance=20    page=0  chnl=15
char id=196  x=87    y=31    width=23    height=29    xoffset=-2    yoffset=0     xadvance=20    page=0  chnl=15
char id=197  x=226   y=31    width=23    height=28    xoffset=-2    yoffset=1     xadvance=20    page=0  chnl=15
char id=198  x=352   y=31    width=32    height=24    xoffset=-2    yoffset=5     xadvance=30    page=0  chnl=15
char id=199  x=0     y=0     width=22    height=31    xoffset=0     yoffset=5     xadvance=22    page=0  chnl=15
char id=200  x=373   y=0     width=19    height=30    xoffset=1     yoffset=-1    xadvance=20    page=0  chnl=15
char id=201  x=393   y=0     width=19    height=30    xoffset=1     yoffset=-1    xadvance=20    page=0  chnl=15
char id=202  x=353   y=0     width=19    height=30    xoffset=1     yoffset=-1    xadvance=20    page=0  chnl=15
char id=203  x=177   y=31    width=19    height=29    xoffset=1     yoffset=0     xadvance=20    page=0  chnl=15
char id=204  x=55    y=31    width=8     height=30    xoffset=-1    yoffset=-1    xadvance=8     page=0  chnl=15
char id=205  x=64    y=31    width=8     height=30    xoffset=-1    yoffset=-1    xadvance=8     page=0  chnl=15
char id=206  x=12    y=32    width=11    height=30    xoffset=-2    yoffset=-1    xadvance=8     page=0  chnl=15
char id=207  x=215   y=31    width=10    height=29    xoffset=-2    yoffset=0     xadvance=8     page=0  chnl=15
char id=208  x=107   y=61    width=24    height=24    xoffset=-2    yoffset=5     xadvance=22    page=0  chnl=15
char id=209  x=290   y=0     width=20    height=30    xoffset=1     yoffset=-1    xadvance=22    page=0  chnl=15
char id=210  x=54    y=0     width=23    height=30    xoffset=0     yoffset=-1    xadvance=23    page=0  chnl=15
char id=211  x=78    y=0     width=23    height=30    xoffset=0     yoffset=-1    xadvance=23    page=0  chnl=15
char id=212  x=126   y=0     width=23    height=30    xoffset=0     yoffset=-1    xadvance=23    page=0  chnl=15
char id=213  x=102   y=0     width=23    height=30    xoffset=0     yoffset=-1    xadvance=23    page=0  chnl=15
char id=214  x=111   y=31    width=23    height=29    xoffset=0     yoffset=0     xadvance=23    page=0  chnl=15
char id=215  x=0     y=161   width=16    height=15    xoffset=1     yoffset=10    xadvance=18    page=0  chnl=15
char id=216  x=311   y=31    width=23    height=25    xoffset=0     yoffset=5     xadvance=23    page=0  chnl=15
char id=217  x=332   y=0     width=20    height=30    xoffset=1     yoffset=-1    xadvance=22    page=0  chnl=15
char id=218  x=269   y=0     width=20    height=30    xoffset=1     yoffset=-1    xadvance=22    page=0  chnl=15
char id=219  x=311   y=0     width=20    height=30    xoffset=1     yoffset=-1    xadvance=22    page=0  chnl=15
char id=220  x=135   y=31    width=20    height=29    xoffset=1     yoffset=0     xadvance=22    page=0  chnl=15
char id=221  x=246   y=0     width=22    height=30    xoffset=-2    yoffset=-1    xadvance=20    page=0  chnl=15
char id=222  x=102   y=87    width=19    height=24    xoffset=1     yoffset=5     xadvance=20    page=0  chnl=15
char id=223  x=142   y=86    width=19    height=24    xoffset=0     yoffset=5     xadvance=18    page=0  chnl=15
char id=224  x=430   y=106   width=17    height=23    xoffset=-1    yoffset=6     xadvance=17    page=0  chnl=15
char id=225  x=448   y=106   width=17    height=23    xoffset=-1    yoffset=6     xadvance=17    page=0  chnl=15
char id=226  x=394   y=106   width=17    height=23    xoffset=-1    yoffset=6     xadvance=17    page=0  chnl=15
char id=227  x=376   y=106   width=17    height=23    xoffset=-1    yoffset=6     xadvance=17    page=0  chnl=15
char id=228  x=38    y=138   width=17    height=22    xoffset=-1    yoffset=7     xadvance=17    page=0  chnl=15
char id=229  x=478   y=81    width=17    height=24    xoffset=-1    yoffset=5     xadvance=17    page=0  chnl=15
char id=230  x=132   y=136   width=29    height=18    xoffset=-1    yoffset=11    xadvance=27    page=0  chnl=15
char id=231  x=335   y=31    width=16    height=25    xoffset=-1    yoffset=11    xadvance=15    page=0  chnl=15
char id=232  x=189   y=111   width=18    height=23    xoffset=-1    yoffset=6     xadvance=17    page=0  chnl=15
char id=233  x=303   y=107   width=18    height=23    xoffset=-1    yoffset=6     xadvance=17    page=0  chnl=15
char id=234  x=227   y=111   width=18    height=23    xoffset=-1    yoffset=6     xadvance=17    page=0  chnl=15
char id=235  x=19    y=138   width=18    height=22    xoffset=-1    yoffset=7     xadvance=17    page=0  chnl=15
char id=236  x=502   y=106   width=9     height=23    xoffset=-1    yoffset=6     xadvance=8     page=0  chnl=15
char id=237  x=492   y=106   width=9     height=23    xoffset=1     yoffset=6     xadvance=8     page=0  chnl=15
char id=238  x=466   y=106   width=13    height=23    xoffset=-2    yoffset=6     xadvance=8     page=0  chnl=15
char id=239  x=74    y=137   width=12    height=22    xoffset=-2    yoffset=7     xadvance=8     page=0  chnl=15
char id=240  x=162   y=86    width=19    height=24    xoffset=-1    yoffset=5     xadvance=17    page=0  chnl=15
char id=241  x=358   y=107   width=17    height=23    xoffset=0     yoffset=6     xadvance=17    page=0  chnl=15
char id=242  x=284   y=110   width=18    height=23    xoffset=-1    yoffset=6     xadvance=17    page=0  chnl=15
char id=243  x=265   y=110   width=18    height=23    xoffset=-1    yoffset=6     xadvance=17    page=0  chnl=15
char id=244  x=208   y=111   width=18    height=23    xoffset=-1    yoffset=6     xadvance=17    page=0  chnl=15
char id=245  x=246   y=110   width=18    height=23    xoffset=-1    yoffset=6     xadvance=17    page=0  chnl=15
char id=246  x=0     y=138   width=18    height=22    xoffset=-1    yoffset=7     xadvance=17    page=0  chnl=15
char id=247  x=487   y=130   width=17    height=15    xoffset=0     yoffset=10    xadvance=16    page=0  chnl=15
char id=248  x=113   y=137   width=18    height=20    xoffset=0     yoffset=10    xadvance=18    page=0  chnl=15
char id=249  x=340   y=107   width=17    height=23    xoffset=0     yoffset=6     xadvance=17    page=0  chnl=15
char id=250  x=322   y=107   width=17    height=23    xoffset=0     yoffset=6     xadvance=17    page=0  chnl=15
char id=251  x=412   y=106   width=17    height=23    xoffset=0     yoffset=6     xadvance=17    page=0  chnl=15
char id=252  x=56    y=137   width=17    height=22    xoffset=0     yoffset=7     xadvance=17    page=0  chnl=15
char id=253  x=197   y=31    width=17    height=29    xoffset=-1    yoffset=6     xadvance=15    page=0  chnl=15
char id=254  x=413   y=0     width=18    height=30    xoffset=0     yoffset=5     xadvance=17    page=0  chnl=15
char id=255  x=268   y=31    width=17    height=28    xoffset=-1    yoffset=7     xadvance=15    page=0  chnl=15
kernings count=91
kerning first=32  second=65  amount=-2  
kerning first=32  second=84  amount=-1  
kerning first=32  second=89  amount=-1  
kerning first=121 second=46  amount=-2  
kerning first=121 second=44  amount=-2  
kerning first=119 second=46  amount=-2  
kerning first=119 second=44  amount=-2  
kerning first=118 second=46  amount=-2  
kerning first=118 second=44  amount=-2  
kerning first=114 second=46  amount=-2  
kerning first=49  second=49  amount=-2  
kerning first=65  second=32  amount=-2  
kerning first=65  second=84  amount=-2  
kerning first=65  second=86  amount=-2  
kerning first=65  second=87  amount=-1  
kerning first=65  second=89  amount=-2  
kerning first=65  second=118 amount=-1  
kerning first=65  second=119 amount=-1  
kerning first=65  second=121 amount=-1  
kerning first=114 second=44  amount=-2  
kerning first=70  second=44  amount=-3  
kerning first=70  second=46  amount=-3  
kerning first=70  second=65  amount=-2  
kerning first=76  second=32  amount=-1  
kerning first=76  second=84  amount=-2  
kerning first=76  second=86  amount=-2  
kerning first=76  second=87  amount=-2  
kerning first=76  second=89  amount=-2  
kerning first=76  second=121 amount=-1  
kerning first=102 second=102 amount=-1  
kerning first=80  second=32  amount=-1  
kerning first=80  second=44  amount=-4  
kerning first=80  second=46  amount=-4  
kerning first=80  second=65  amount=-2  
kerning first=82  second=84  amount=-1  
kerning first=82  second=86  amount=-1  
kerning first=82  second=87  amount=-1  
kerning first=82  second=89  amount=-1  
kerning first=84  second=32  amount=-1  
kerning first=84  second=44  amount=-3  
kerning first=84  second=45  amount=-2  
kerning first=84  second=46  amount=-3  
kerning first=84  second=58  amount=-3  
kerning first=89  second=118 amount=-2  
kerning first=84  second=65  amount=-2  
kerning first=84  second=79  amount=-1  
kerning first=84  second=97  amount=-3  
kerning first=84  second=99  amount=-3  
kerning first=84  second=101 amount=-3  
kerning first=84  second=105 amount=-1  
kerning first=84  second=111 amount=-3  
kerning first=84  second=114 amount=-1  
kerning first=84  second=115 amount=-3  
kerning first=84  second=117 amount=-1  
kerning first=84  second=119 amount=-2  
kerning first=84  second=121 amount=-2  
kerning first=86  second=44  amount=-3  
kerning first=86  second=45  amount=-2  
kerning first=86  second=46  amount=-3  
kerning first=86  second=58  amount=-1  
kerning first=89  second=117 amount=-2  
kerning first=86  second=65  amount=-2  
kerning first=86  second=97  amount=-2  
kerning first=86  second=101 amount=-2  
kerning first=86  second=105 amount=-1  
kerning first=86  second=111 amount=-2  
kerning first=86  second=114 amount=-1  
kerning first=86  second=117 amount=-1  
kerning first=86  second=121 amount=-1  
kerning first=87  second=44  amount=-2  
kerning first=87  second=45  amount=-1  
kerning first=87  second=46  amount=-2  
kerning first=87  second=58  amount=-1  
kerning first=89  second=113 amount=-3  
kerning first=87  second=65  amount=-1  
kerning first=87  second=97  amount=-1  
kerning first=87  second=101 amount=-1  
kerning first=89  second=112 amount=-2  
kerning first=87  second=111 amount=-1  
kerning first=87  second=114 amount=-1  
kerning first=87  second=117 amount=-1  
kerning first=89  second=111 amount=-3  
kerning first=89  second=32  amount=-1  
kerning first=89  second=44  amount=-4  
kerning first=89  second=45  amount=-3  
kerning first=89  second=46  amount=-4  
kerning first=89  second=58  amount=-2  
kerning first=89  second=105 amount=-1  
kerning first=89  second=65  amount=-2  
kerning first=89  second=97  amount=-2  
kerning first=89  second=101 amount=-3  
