info face="Arial" size=-25 bold=0 italic=0 charset="" unicode=1 stretchH=100 smooth=1 aa=1 padding=0,0,0,0 spacing=1,1 outline=1
common lineHeight=28 base=23 scaleW=512 scaleH=256 pages=1 packed=0 alphaChnl=1 redChnl=0 greenChnl=0 blueChnl=0
page id=0 file="Font25Arial_o1_0.png"
chars count=191
char id=32   x=469   y=105   width=5     height=3     xoffset=-2    yoffset=26    xadvance=7     page=0  chnl=15
char id=33   x=164   y=93    width=6     height=20    xoffset=1     yoffset=4     xadvance=8     page=0  chnl=15
char id=34   x=314   y=107   width=11    height=8     xoffset=-1    yoffset=4     xadvance=9     page=0  chnl=15
char id=35   x=424   y=47    width=17    height=20    xoffset=-2    yoffset=4     xadvance=14    page=0  chnl=15
char id=36   x=177   y=26    width=16    height=23    xoffset=-1    yoffset=3     xadvance=14    page=0  chnl=15
char id=37   x=360   y=26    width=22    height=20    xoffset=0     yoffset=4     xadvance=22    page=0  chnl=15
char id=38   x=42    y=51    width=19    height=20    xoffset=-1    yoffset=4     xadvance=17    page=0  chnl=15
char id=39   x=333   y=105   width=6     height=8     xoffset=-1    yoffset=4     xadvance=5     page=0  chnl=15
char id=40   x=463   y=0     width=9     height=25    xoffset=0     yoffset=4     xadvance=8     page=0  chnl=15
char id=41   x=473   y=0     width=9     height=25    xoffset=0     yoffset=4     xadvance=8     page=0  chnl=15
char id=42   x=274   y=110   width=12    height=10    xoffset=-1    yoffset=4     xadvance=10    page=0  chnl=15
char id=43   x=79    y=114   width=15    height=14    xoffset=0     yoffset=7     xadvance=15    page=0  chnl=15
char id=44   x=326   y=107   width=6     height=8     xoffset=1     yoffset=20    xadvance=7     page=0  chnl=15
char id=45   x=433   y=105   width=10    height=4     xoffset=-1    yoffset=15    xadvance=8     page=0  chnl=15
char id=46   x=455   y=105   width=6     height=4     xoffset=1     yoffset=20    xadvance=7     page=0  chnl=15
char id=47   x=75    y=93    width=11    height=20    xoffset=-2    yoffset=4     xadvance=7     page=0  chnl=15
char id=48   x=435   y=68    width=15    height=20    xoffset=-1    yoffset=4     xadvance=14    page=0  chnl=15
char id=49   x=122   y=93    width=10    height=20    xoffset=1     yoffset=4     xadvance=14    page=0  chnl=15
char id=50   x=355   y=68    width=15    height=20    xoffset=-1    yoffset=4     xadvance=14    page=0  chnl=15
char id=51   x=68    y=72    width=16    height=20    xoffset=-1    yoffset=4     xadvance=14    page=0  chnl=15
char id=52   x=85    y=72    width=16    height=20    xoffset=-1    yoffset=4     xadvance=14    page=0  chnl=15
char id=53   x=102   y=72    width=16    height=20    xoffset=-1    yoffset=4     xadvance=14    page=0  chnl=15
char id=54   x=119   y=72    width=16    height=20    xoffset=-1    yoffset=4     xadvance=14    page=0  chnl=15
char id=55   x=204   y=69    width=16    height=20    xoffset=-1    yoffset=4     xadvance=14    page=0  chnl=15
char id=56   x=136   y=72    width=16    height=20    xoffset=-1    yoffset=4     xadvance=14    page=0  chnl=15
char id=57   x=153   y=72    width=16    height=20    xoffset=-1    yoffset=4     xadvance=14    page=0  chnl=15
char id=58   x=55    y=115   width=6     height=15    xoffset=1     yoffset=9     xadvance=7     page=0  chnl=15
char id=59   x=288   y=89    width=6     height=19    xoffset=1     yoffset=9     xadvance=7     page=0  chnl=15
char id=60   x=111   y=114   width=15    height=13    xoffset=0     yoffset=8     xadvance=15    page=0  chnl=15
char id=61   x=258   y=110   width=15    height=10    xoffset=0     yoffset=9     xadvance=15    page=0  chnl=15
char id=62   x=95    y=114   width=15    height=13    xoffset=0     yoffset=8     xadvance=15    page=0  chnl=15
char id=63   x=170   y=71    width=16    height=20    xoffset=-1    yoffset=4     xadvance=14    page=0  chnl=15
char id=64   x=0     y=0     width=26    height=25    xoffset=0     yoffset=4     xadvance=25    page=0  chnl=15
char id=65   x=0     y=52    width=20    height=20    xoffset=-2    yoffset=4     xadvance=17    page=0  chnl=15
char id=66   x=370   y=47    width=17    height=20    xoffset=0     yoffset=4     xadvance=17    page=0  chnl=15
char id=67   x=102   y=51    width=19    height=20    xoffset=0     yoffset=4     xadvance=18    page=0  chnl=15
char id=68   x=219   y=48    width=18    height=20    xoffset=0     yoffset=4     xadvance=18    page=0  chnl=15
char id=69   x=352   y=47    width=17    height=20    xoffset=0     yoffset=4     xadvance=17    page=0  chnl=15
char id=70   x=187   y=71    width=16    height=20    xoffset=0     yoffset=4     xadvance=15    page=0  chnl=15
char id=71   x=142   y=51    width=19    height=20    xoffset=0     yoffset=4     xadvance=19    page=0  chnl=15
char id=72   x=333   y=47    width=18    height=20    xoffset=0     yoffset=4     xadvance=18    page=0  chnl=15
char id=73   x=157   y=93    width=6     height=20    xoffset=0     yoffset=4     xadvance=6     page=0  chnl=15
char id=74   x=60    y=93    width=14    height=20    xoffset=-1    yoffset=4     xadvance=13    page=0  chnl=15
char id=75   x=257   y=47    width=18    height=20    xoffset=0     yoffset=4     xadvance=17    page=0  chnl=15
char id=76   x=419   y=68    width=15    height=20    xoffset=0     yoffset=4     xadvance=14    page=0  chnl=15
char id=77   x=474   y=26    width=21    height=20    xoffset=0     yoffset=4     xadvance=21    page=0  chnl=15
char id=78   x=238   y=48    width=18    height=20    xoffset=0     yoffset=4     xadvance=18    page=0  chnl=15
char id=79   x=452   y=26    width=21    height=20    xoffset=-1    yoffset=4     xadvance=19    page=0  chnl=15
char id=80   x=314   y=47    width=18    height=20    xoffset=0     yoffset=4     xadvance=17    page=0  chnl=15
char id=81   x=194   y=26    width=21    height=21    xoffset=-1    yoffset=4     xadvance=19    page=0  chnl=15
char id=82   x=62    y=51    width=19    height=20    xoffset=0     yoffset=4     xadvance=18    page=0  chnl=15
char id=83   x=162   y=50    width=18    height=20    xoffset=-1    yoffset=4     xadvance=17    page=0  chnl=15
char id=84   x=181   y=50    width=18    height=20    xoffset=-2    yoffset=4     xadvance=14    page=0  chnl=15
char id=85   x=200   y=48    width=18    height=20    xoffset=0     yoffset=4     xadvance=18    page=0  chnl=15
char id=86   x=82    y=51    width=19    height=20    xoffset=-1    yoffset=4     xadvance=17    page=0  chnl=15
char id=87   x=255   y=26    width=28    height=20    xoffset=-1    yoffset=4     xadvance=26    page=0  chnl=15
char id=88   x=122   y=51    width=19    height=20    xoffset=-1    yoffset=4     xadvance=17    page=0  chnl=15
char id=89   x=276   y=47    width=18    height=20    xoffset=-1    yoffset=4     xadvance=16    page=0  chnl=15
char id=90   x=388   y=47    width=17    height=20    xoffset=-1    yoffset=4     xadvance=15    page=0  chnl=15
char id=91   x=493   y=0     width=8     height=25    xoffset=0     yoffset=4     xadvance=7     page=0  chnl=15
char id=92   x=99    y=93    width=11    height=20    xoffset=-2    yoffset=4     xadvance=7     page=0  chnl=15
char id=93   x=502   y=0     width=8     height=25    xoffset=-1    yoffset=4     xadvance=7     page=0  chnl=15
char id=94   x=188   y=112   width=14    height=12    xoffset=-1    yoffset=4     xadvance=12    page=0  chnl=15
char id=95   x=403   y=105   width=18    height=4     xoffset=-2    yoffset=25    xadvance=14    page=0  chnl=15
char id=96   x=368   y=105   width=7     height=5     xoffset=0     yoffset=4     xadvance=8     page=0  chnl=15
char id=97   x=433   y=89    width=16    height=15    xoffset=-1    yoffset=9     xadvance=14    page=0  chnl=15
char id=98   x=496   y=26    width=15    height=20    xoffset=0     yoffset=4     xadvance=14    page=0  chnl=15
char id=99   x=482   y=89    width=14    height=15    xoffset=-1    yoffset=9     xadvance=13    page=0  chnl=15
char id=100  x=323   y=68    width=15    height=20    xoffset=-1    yoffset=4     xadvance=14    page=0  chnl=15
char id=101  x=399   y=89    width=16    height=15    xoffset=-1    yoffset=9     xadvance=14    page=0  chnl=15
char id=102  x=87    y=93    width=11    height=20    xoffset=-1    yoffset=4     xadvance=7     page=0  chnl=15
char id=103  x=339   y=68    width=15    height=20    xoffset=-1    yoffset=9     xadvance=14    page=0  chnl=15
char id=104  x=15    y=94    width=14    height=20    xoffset=0     yoffset=4     xadvance=14    page=0  chnl=15
char id=105  x=150   y=93    width=6     height=20    xoffset=0     yoffset=4     xadvance=6     page=0  chnl=15
char id=106  x=483   y=0     width=9     height=25    xoffset=-3    yoffset=4     xadvance=6     page=0  chnl=15
char id=107  x=45    y=94    width=14    height=20    xoffset=0     yoffset=4     xadvance=13    page=0  chnl=15
char id=108  x=178   y=92    width=6     height=20    xoffset=0     yoffset=4     xadvance=6     page=0  chnl=15
char id=109  x=376   y=89    width=22    height=15    xoffset=0     yoffset=9     xadvance=22    page=0  chnl=15
char id=110  x=497   y=89    width=14    height=15    xoffset=0     yoffset=9     xadvance=14    page=0  chnl=15
char id=111  x=416   y=89    width=16    height=15    xoffset=-1    yoffset=9     xadvance=14    page=0  chnl=15
char id=112  x=371   y=68    width=15    height=20    xoffset=0     yoffset=9     xadvance=14    page=0  chnl=15
char id=113  x=387   y=68    width=15    height=20    xoffset=-1    yoffset=9     xadvance=14    page=0  chnl=15
char id=114  x=44    y=115   width=10    height=15    xoffset=0     yoffset=9     xadvance=8     page=0  chnl=15
char id=115  x=450   y=89    width=15    height=15    xoffset=-1    yoffset=9     xadvance=13    page=0  chnl=15
char id=116  x=266   y=90    width=10    height=19    xoffset=-1    yoffset=5     xadvance=7     page=0  chnl=15
char id=117  x=15    y=115   width=14    height=15    xoffset=0     yoffset=9     xadvance=14    page=0  chnl=15
char id=118  x=466   y=89    width=15    height=15    xoffset=-2    yoffset=9     xadvance=11    page=0  chnl=15
char id=119  x=353   y=89    width=22    height=15    xoffset=-2    yoffset=9     xadvance=19    page=0  chnl=15
char id=120  x=30    y=115   width=13    height=15    xoffset=-1    yoffset=9     xadvance=11    page=0  chnl=15
char id=121  x=451   y=68    width=14    height=20    xoffset=-1    yoffset=9     xadvance=12    page=0  chnl=15
char id=122  x=0     y=115   width=14    height=15    xoffset=-1    yoffset=9     xadvance=12    page=0  chnl=15
char id=123  x=452   y=0     width=10    height=25    xoffset=-1    yoffset=4     xadvance=8     page=0  chnl=15
char id=124  x=16    y=26    width=6     height=25    xoffset=0     yoffset=4     xadvance=6     page=0  chnl=15
char id=125  x=430   y=0     width=10    height=25    xoffset=-1    yoffset=4     xadvance=8     page=0  chnl=15
char id=126  x=340   y=105   width=17    height=6     xoffset=-1    yoffset=11    xadvance=15    page=0  chnl=15
char id=160  x=475   y=105   width=5     height=3     xoffset=-2    yoffset=26    xadvance=7     page=0  chnl=15
char id=161  x=171   y=92    width=6     height=20    xoffset=1     yoffset=9     xadvance=8     page=0  chnl=15
char id=162  x=415   y=0     width=14    height=25    xoffset=0     yoffset=4     xadvance=14    page=0  chnl=15
char id=163  x=221   y=69    width=16    height=20    xoffset=-1    yoffset=4     xadvance=14    page=0  chnl=15
char id=164  x=62    y=114   width=16    height=14    xoffset=-1    yoffset=8     xadvance=14    page=0  chnl=15
char id=165  x=406   y=47    width=17    height=20    xoffset=-2    yoffset=4     xadvance=14    page=0  chnl=15
char id=166  x=23    y=26    width=6     height=25    xoffset=0     yoffset=4     xadvance=6     page=0  chnl=15
char id=167  x=367   y=0     width=16    height=25    xoffset=-1    yoffset=4     xadvance=14    page=0  chnl=15
char id=168  x=444   y=105   width=10    height=4     xoffset=-1    yoffset=4     xadvance=8     page=0  chnl=15
char id=169  x=383   y=26    width=22    height=20    xoffset=-2    yoffset=4     xadvance=18    page=0  chnl=15
char id=170  x=227   y=110   width=11    height=11    xoffset=-1    yoffset=4     xadvance=9     page=0  chnl=15
char id=171  x=142   y=114   width=14    height=13    xoffset=0     yoffset=10    xadvance=14    page=0  chnl=15
char id=172  x=287   y=109   width=15    height=9     xoffset=0     yoffset=10    xadvance=15    page=0  chnl=15
char id=173  x=422   y=105   width=10    height=4     xoffset=-1    yoffset=15    xadvance=8     page=0  chnl=15
char id=174  x=406   y=26    width=22    height=20    xoffset=-2    yoffset=4     xadvance=18    page=0  chnl=15
char id=175  x=384   y=105   width=18    height=4     xoffset=-2    yoffset=1     xadvance=14    page=0  chnl=15
char id=176  x=303   y=107   width=10    height=9     xoffset=0     yoffset=4     xadvance=10    page=0  chnl=15
char id=177  x=295   y=89    width=16    height=17    xoffset=-1    yoffset=7     xadvance=14    page=0  chnl=15
char id=178  x=203   y=112   width=11    height=11    xoffset=-1    yoffset=4     xadvance=8     page=0  chnl=15
char id=179  x=239   y=110   width=10    height=11    xoffset=-1    yoffset=4     xadvance=8     page=0  chnl=15
char id=180  x=376   y=105   width=7     height=5     xoffset=1     yoffset=4     xadvance=8     page=0  chnl=15
char id=181  x=30    y=94    width=14    height=20    xoffset=0     yoffset=9     xadvance=14    page=0  chnl=15
char id=182  x=349   y=0     width=17    height=25    xoffset=-2    yoffset=4     xadvance=13    page=0  chnl=15
char id=183  x=462   y=105   width=6     height=4     xoffset=1     yoffset=12    xadvance=8     page=0  chnl=15
char id=184  x=358   y=105   width=9     height=6     xoffset=-1    yoffset=22    xadvance=8     page=0  chnl=15
char id=185  x=250   y=110   width=7     height=11    xoffset=0     yoffset=4     xadvance=8     page=0  chnl=15
char id=186  x=215   y=112   width=11    height=11    xoffset=-1    yoffset=4     xadvance=9     page=0  chnl=15
char id=187  x=157   y=114   width=13    height=13    xoffset=1     yoffset=10    xadvance=14    page=0  chnl=15
char id=188  x=312   y=26    width=23    height=20    xoffset=0     yoffset=4     xadvance=21    page=0  chnl=15
char id=189  x=429   y=26    width=22    height=20    xoffset=0     yoffset=4     xadvance=21    page=0  chnl=15
char id=190  x=336   y=26    width=23    height=20    xoffset=-1    yoffset=4     xadvance=21    page=0  chnl=15
char id=191  x=403   y=68    width=15    height=20    xoffset=0     yoffset=9     xadvance=15    page=0  chnl=15
char id=192  x=115   y=0     width=20    height=25    xoffset=-2    yoffset=-1    xadvance=17    page=0  chnl=15
char id=193  x=157   y=0     width=20    height=25    xoffset=-2    yoffset=-1    xadvance=17    page=0  chnl=15
char id=194  x=136   y=0     width=20    height=25    xoffset=-2    yoffset=-1    xadvance=17    page=0  chnl=15
char id=195  x=178   y=0     width=20    height=25    xoffset=-2    yoffset=-1    xadvance=17    page=0  chnl=15
char id=196  x=52    y=26    width=20    height=24    xoffset=-2    yoffset=0     xadvance=17    page=0  chnl=15
char id=197  x=156   y=26    width=20    height=23    xoffset=-2    yoffset=1     xadvance=17    page=0  chnl=15
char id=198  x=284   y=26    width=27    height=20    xoffset=-2    yoffset=4     xadvance=25    page=0  chnl=15
char id=199  x=73    y=26    width=19    height=24    xoffset=0     yoffset=4     xadvance=18    page=0  chnl=15
char id=200  x=295   y=0     width=17    height=25    xoffset=0     yoffset=-1    xadvance=17    page=0  chnl=15
char id=201  x=313   y=0     width=17    height=25    xoffset=0     yoffset=-1    xadvance=17    page=0  chnl=15
char id=202  x=331   y=0     width=17    height=25    xoffset=0     yoffset=-1    xadvance=17    page=0  chnl=15
char id=203  x=112   y=26    width=17    height=24    xoffset=0     yoffset=0     xadvance=17    page=0  chnl=15
char id=204  x=8     y=26    width=7     height=25    xoffset=-1    yoffset=-1    xadvance=7     page=0  chnl=15
char id=205  x=0     y=26    width=7     height=25    xoffset=0     yoffset=-1    xadvance=7     page=0  chnl=15
char id=206  x=441   y=0     width=10    height=25    xoffset=-2    yoffset=-1    xadvance=7     page=0  chnl=15
char id=207  x=145   y=26    width=10    height=24    xoffset=-2    yoffset=0     xadvance=7     page=0  chnl=15
char id=208  x=21    y=52    width=20    height=20    xoffset=-2    yoffset=4     xadvance=18    page=0  chnl=15
char id=209  x=257   y=0     width=18    height=25    xoffset=0     yoffset=-1    xadvance=18    page=0  chnl=15
char id=210  x=27    y=0     width=21    height=25    xoffset=-1    yoffset=-1    xadvance=19    page=0  chnl=15
char id=211  x=49    y=0     width=21    height=25    xoffset=-1    yoffset=-1    xadvance=19    page=0  chnl=15
char id=212  x=71    y=0     width=21    height=25    xoffset=-1    yoffset=-1    xadvance=19    page=0  chnl=15
char id=213  x=93    y=0     width=21    height=25    xoffset=-1    yoffset=-1    xadvance=19    page=0  chnl=15
char id=214  x=30    y=26    width=21    height=24    xoffset=-1    yoffset=0     xadvance=19    page=0  chnl=15
char id=215  x=127   y=114   width=14    height=13    xoffset=0     yoffset=8     xadvance=15    page=0  chnl=15
char id=216  x=216   y=26    width=21    height=21    xoffset=-1    yoffset=4     xadvance=19    page=0  chnl=15
char id=217  x=219   y=0     width=18    height=25    xoffset=0     yoffset=-1    xadvance=18    page=0  chnl=15
char id=218  x=276   y=0     width=18    height=25    xoffset=0     yoffset=-1    xadvance=18    page=0  chnl=15
char id=219  x=238   y=0     width=18    height=25    xoffset=0     yoffset=-1    xadvance=18    page=0  chnl=15
char id=220  x=93    y=26    width=18    height=24    xoffset=0     yoffset=0     xadvance=18    page=0  chnl=15
char id=221  x=199   y=0     width=19    height=25    xoffset=-2    yoffset=-1    xadvance=17    page=0  chnl=15
char id=222  x=295   y=47    width=18    height=20    xoffset=0     yoffset=4     xadvance=17    page=0  chnl=15
char id=223  x=238   y=69    width=16    height=20    xoffset=0     yoffset=4     xadvance=15    page=0  chnl=15
char id=224  x=255   y=69    width=16    height=20    xoffset=-1    yoffset=4     xadvance=14    page=0  chnl=15
char id=225  x=272   y=68    width=16    height=20    xoffset=-1    yoffset=4     xadvance=14    page=0  chnl=15
char id=226  x=289   y=68    width=16    height=20    xoffset=-1    yoffset=4     xadvance=14    page=0  chnl=15
char id=227  x=306   y=68    width=16    height=20    xoffset=-1    yoffset=4     xadvance=14    page=0  chnl=15
char id=228  x=202   y=92    width=16    height=19    xoffset=-1    yoffset=5     xadvance=14    page=0  chnl=15
char id=229  x=238   y=26    width=16    height=21    xoffset=-1    yoffset=3     xadvance=14    page=0  chnl=15
char id=230  x=328   y=89    width=24    height=15    xoffset=-1    yoffset=9     xadvance=22    page=0  chnl=15
char id=231  x=251   y=90    width=14    height=19    xoffset=-1    yoffset=9     xadvance=13    page=0  chnl=15
char id=232  x=51    y=72    width=16    height=20    xoffset=-1    yoffset=4     xadvance=14    page=0  chnl=15
char id=233  x=442   y=47    width=16    height=20    xoffset=-1    yoffset=4     xadvance=14    page=0  chnl=15
char id=234  x=459   y=47    width=16    height=20    xoffset=-1    yoffset=4     xadvance=14    page=0  chnl=15
char id=235  x=185   y=92    width=16    height=19    xoffset=-1    yoffset=5     xadvance=14    page=0  chnl=15
char id=236  x=142   y=93    width=7     height=20    xoffset=-1    yoffset=4     xadvance=7     page=0  chnl=15
char id=237  x=133   y=93    width=8     height=20    xoffset=0     yoffset=4     xadvance=7     page=0  chnl=15
char id=238  x=111   y=93    width=10    height=20    xoffset=-2    yoffset=4     xadvance=7     page=0  chnl=15
char id=239  x=277   y=89    width=10    height=19    xoffset=-2    yoffset=5     xadvance=7     page=0  chnl=15
char id=240  x=476   y=47    width=16    height=20    xoffset=-1    yoffset=4     xadvance=14    page=0  chnl=15
char id=241  x=0     y=94    width=14    height=20    xoffset=0     yoffset=4     xadvance=14    page=0  chnl=15
char id=242  x=493   y=47    width=16    height=20    xoffset=-1    yoffset=4     xadvance=14    page=0  chnl=15
char id=243  x=0     y=73    width=16    height=20    xoffset=-1    yoffset=4     xadvance=14    page=0  chnl=15
char id=244  x=17    y=73    width=16    height=20    xoffset=-1    yoffset=4     xadvance=14    page=0  chnl=15
char id=245  x=34    y=73    width=16    height=20    xoffset=-1    yoffset=4     xadvance=14    page=0  chnl=15
char id=246  x=219   y=90    width=16    height=19    xoffset=-1    yoffset=5     xadvance=14    page=0  chnl=15
char id=247  x=171   y=113   width=16    height=12    xoffset=-1    yoffset=8     xadvance=14    page=0  chnl=15
char id=248  x=312   y=89    width=15    height=17    xoffset=0     yoffset=8     xadvance=15    page=0  chnl=15
char id=249  x=496   y=68    width=14    height=20    xoffset=0     yoffset=4     xadvance=14    page=0  chnl=15
char id=250  x=481   y=68    width=14    height=20    xoffset=0     yoffset=4     xadvance=14    page=0  chnl=15
char id=251  x=466   y=68    width=14    height=20    xoffset=0     yoffset=4     xadvance=14    page=0  chnl=15
char id=252  x=236   y=90    width=14    height=19    xoffset=0     yoffset=5     xadvance=14    page=0  chnl=15
char id=253  x=400   y=0     width=14    height=25    xoffset=-1    yoffset=4     xadvance=13    page=0  chnl=15
char id=254  x=384   y=0     width=15    height=25    xoffset=0     yoffset=4     xadvance=14    page=0  chnl=15
char id=255  x=130   y=26    width=14    height=24    xoffset=-1    yoffset=5     xadvance=13    page=0  chnl=15
kernings count=70
kerning first=32  second=65  amount=-1  
kerning first=121 second=46  amount=-2  
kerning first=121 second=44  amount=-2  
kerning first=119 second=46  amount=-1  
kerning first=119 second=44  amount=-1  
kerning first=118 second=46  amount=-2  
kerning first=118 second=44  amount=-2  
kerning first=114 second=46  amount=-1  
kerning first=114 second=44  amount=-1  
kerning first=89  second=118 amount=-1  
kerning first=49  second=49  amount=-2  
kerning first=65  second=32  amount=-1  
kerning first=65  second=84  amount=-2  
kerning first=65  second=86  amount=-2  
kerning first=65  second=87  amount=-1  
kerning first=65  second=89  amount=-2  
kerning first=89  second=117 amount=-1  
kerning first=89  second=113 amount=-2  
kerning first=89  second=112 amount=-2  
kerning first=89  second=111 amount=-2  
kerning first=70  second=44  amount=-3  
kerning first=70  second=46  amount=-3  
kerning first=70  second=65  amount=-1  
kerning first=76  second=32  amount=-1  
kerning first=76  second=84  amount=-2  
kerning first=76  second=86  amount=-2  
kerning first=76  second=87  amount=-2  
kerning first=76  second=89  amount=-2  
kerning first=76  second=121 amount=-1  
kerning first=89  second=105 amount=-1  
kerning first=89  second=101 amount=-2  
kerning first=80  second=44  amount=-3  
kerning first=80  second=46  amount=-3  
kerning first=80  second=65  amount=-2  
kerning first=89  second=97  amount=-2  
kerning first=89  second=65  amount=-2  
kerning first=89  second=58  amount=-1  
kerning first=89  second=46  amount=-3  
kerning first=89  second=45  amount=-2  
kerning first=84  second=44  amount=-3  
kerning first=84  second=45  amount=-1  
kerning first=84  second=46  amount=-3  
kerning first=84  second=58  amount=-3  
kerning first=89  second=44  amount=-3  
kerning first=84  second=65  amount=-2  
kerning first=87  second=97  amount=-1  
kerning first=84  second=97  amount=-3  
kerning first=84  second=99  amount=-3  
kerning first=84  second=101 amount=-3  
kerning first=84  second=105 amount=-1  
kerning first=84  second=111 amount=-3  
kerning first=84  second=114 amount=-1  
kerning first=84  second=115 amount=-3  
kerning first=84  second=117 amount=-1  
kerning first=84  second=119 amount=-1  
kerning first=84  second=121 amount=-1  
kerning first=86  second=44  amount=-2  
kerning first=86  second=45  amount=-1  
kerning first=86  second=46  amount=-2  
kerning first=86  second=58  amount=-1  
kerning first=87  second=65  amount=-1  
kerning first=86  second=65  amount=-2  
kerning first=86  second=97  amount=-2  
kerning first=86  second=101 amount=-1  
kerning first=87  second=46  amount=-1  
kerning first=86  second=111 amount=-1  
kerning first=86  second=114 amount=-1  
kerning first=86  second=117 amount=-1  
kerning first=86  second=121 amount=-1  
kerning first=87  second=44  amount=-1  
