info face="Marlett" size=-30 bold=0 italic=0 charset="" unicode=1 stretchH=100 smooth=1 aa=1 padding=0,0,0,0 spacing=1,1 outline=0
common lineHeight=35 base=28 scaleW=512 scaleH=256 pages=1 packed=0 alphaChnl=0 redChnl=4 greenChnl=4 blueChnl=4
page id=0 file="Font30Marlett_0.png"
chars count=191
char id=32   x=196   y=53    width=3     height=1     xoffset=-1    yoffset=34    xadvance=8     page=0  chnl=15
char id=33   x=432   y=75    width=5     height=22    xoffset=2     yoffset=6     xadvance=9     page=0  chnl=15
char id=34   x=333   y=117   width=10    height=8     xoffset=1     yoffset=6     xadvance=11    page=0  chnl=15
char id=35   x=328   y=52    width=18    height=22    xoffset=-1    yoffset=6     xadvance=17    page=0  chnl=15
char id=36   x=164   y=29    width=15    height=26    xoffset=1     yoffset=5     xadvance=17    page=0  chnl=15
char id=37   x=318   y=29    width=25    height=22    xoffset=1     yoffset=6     xadvance=27    page=0  chnl=15
char id=38   x=171   y=56    width=19    height=22    xoffset=1     yoffset=6     xadvance=20    page=0  chnl=15
char id=39   x=355   y=115   width=4     height=8     xoffset=1     yoffset=6     xadvance=6     page=0  chnl=15
char id=40   x=448   y=0     width=9     height=28    xoffset=1     yoffset=6     xadvance=10    page=0  chnl=15
char id=41   x=458   y=0     width=9     height=28    xoffset=1     yoffset=6     xadvance=10    page=0  chnl=15
char id=42   x=320   y=117   width=12    height=9     xoffset=0     yoffset=6     xadvance=12    page=0  chnl=15
char id=43   x=106   y=125   width=16    height=15    xoffset=1     yoffset=10    xadvance=18    page=0  chnl=15
char id=44   x=368   y=115   width=4     height=7     xoffset=2     yoffset=25    xadvance=8     page=0  chnl=15
char id=45   x=445   y=115   width=10    height=3     xoffset=0     yoffset=19    xadvance=10    page=0  chnl=15
char id=46   x=483   y=114   width=4     height=3     xoffset=2     yoffset=25    xadvance=8     page=0  chnl=15
char id=47   x=388   y=75    width=10    height=22    xoffset=-1    yoffset=6     xadvance=8     page=0  chnl=15
char id=48   x=248   y=76    width=15    height=22    xoffset=1     yoffset=6     xadvance=17    page=0  chnl=15
char id=49   x=421   y=75    width=10    height=22    xoffset=2     yoffset=6     xadvance=17    page=0  chnl=15
char id=50   x=68    y=80    width=16    height=22    xoffset=0     yoffset=6     xadvance=17    page=0  chnl=15
char id=51   x=280   y=75    width=15    height=22    xoffset=1     yoffset=6     xadvance=17    page=0  chnl=15
char id=52   x=51    y=80    width=16    height=22    xoffset=0     yoffset=6     xadvance=17    page=0  chnl=15
char id=53   x=296   y=75    width=15    height=22    xoffset=1     yoffset=6     xadvance=17    page=0  chnl=15
char id=54   x=34    y=81    width=16    height=22    xoffset=0     yoffset=6     xadvance=17    page=0  chnl=15
char id=55   x=216   y=76    width=15    height=22    xoffset=1     yoffset=6     xadvance=17    page=0  chnl=15
char id=56   x=312   y=75    width=15    height=22    xoffset=1     yoffset=6     xadvance=17    page=0  chnl=15
char id=57   x=328   y=75    width=15    height=22    xoffset=1     yoffset=6     xadvance=17    page=0  chnl=15
char id=58   x=506   y=97    width=4     height=16    xoffset=2     yoffset=12    xadvance=8     page=0  chnl=15
char id=59   x=311   y=98    width=4     height=20    xoffset=2     yoffset=12    xadvance=8     page=0  chnl=15
char id=60   x=123   y=125   width=16    height=15    xoffset=1     yoffset=10    xadvance=18    page=0  chnl=15
char id=61   x=303   y=119   width=16    height=9     xoffset=1     yoffset=13    xadvance=18    page=0  chnl=15
char id=62   x=89    y=125   width=16    height=15    xoffset=1     yoffset=10    xadvance=18    page=0  chnl=15
char id=63   x=136   y=80    width=15    height=22    xoffset=1     yoffset=6     xadvance=17    page=0  chnl=15
char id=64   x=21    y=0     width=28    height=28    xoffset=1     yoffset=6     xadvance=30    page=0  chnl=15
char id=65   x=23    y=58    width=21    height=22    xoffset=-1    yoffset=6     xadvance=19    page=0  chnl=15
char id=66   x=404   y=52    width=17    height=22    xoffset=2     yoffset=6     xadvance=20    page=0  chnl=15
char id=67   x=89    y=57    width=20    height=22    xoffset=1     yoffset=6     xadvance=22    page=0  chnl=15
char id=68   x=191   y=56    width=19    height=22    xoffset=2     yoffset=6     xadvance=22    page=0  chnl=15
char id=69   x=494   y=29    width=17    height=22    xoffset=2     yoffset=6     xadvance=20    page=0  chnl=15
char id=70   x=152   y=79    width=15    height=22    xoffset=2     yoffset=6     xadvance=18    page=0  chnl=15
char id=71   x=67    y=57    width=21    height=22    xoffset=1     yoffset=6     xadvance=23    page=0  chnl=15
char id=72   x=385   y=52    width=18    height=22    xoffset=2     yoffset=6     xadvance=22    page=0  chnl=15
char id=73   x=456   y=75    width=4     height=22    xoffset=1     yoffset=6     xadvance=7     page=0  chnl=15
char id=74   x=374   y=75    width=13    height=22    xoffset=0     yoffset=6     xadvance=15    page=0  chnl=15
char id=75   x=211   y=53    width=19    height=22    xoffset=2     yoffset=6     xadvance=20    page=0  chnl=15
char id=76   x=168   y=79    width=15    height=22    xoffset=2     yoffset=6     xadvance=17    page=0  chnl=15
char id=77   x=470   y=29    width=23    height=22    xoffset=1     yoffset=6     xadvance=25    page=0  chnl=15
char id=78   x=309   y=52    width=18    height=22    xoffset=2     yoffset=6     xadvance=22    page=0  chnl=15
char id=79   x=45    y=57    width=21    height=22    xoffset=1     yoffset=6     xadvance=23    page=0  chnl=15
char id=80   x=422   y=52    width=17    height=22    xoffset=2     yoffset=6     xadvance=20    page=0  chnl=15
char id=81   x=196   y=29    width=22    height=23    xoffset=1     yoffset=6     xadvance=23    page=0  chnl=15
char id=82   x=110   y=57    width=20    height=22    xoffset=2     yoffset=6     xadvance=22    page=0  chnl=15
char id=83   x=366   y=52    width=18    height=22    xoffset=1     yoffset=6     xadvance=20    page=0  chnl=15
char id=84   x=251   y=53    width=19    height=22    xoffset=0     yoffset=6     xadvance=19    page=0  chnl=15
char id=85   x=271   y=52    width=18    height=22    xoffset=2     yoffset=6     xadvance=22    page=0  chnl=15
char id=86   x=131   y=57    width=19    height=22    xoffset=0     yoffset=6     xadvance=19    page=0  chnl=15
char id=87   x=287   y=29    width=30    height=22    xoffset=0     yoffset=6     xadvance=30    page=0  chnl=15
char id=88   x=231   y=53    width=19    height=22    xoffset=0     yoffset=6     xadvance=19    page=0  chnl=15
char id=89   x=151   y=56    width=19    height=22    xoffset=0     yoffset=6     xadvance=19    page=0  chnl=15
char id=90   x=290   y=52    width=18    height=22    xoffset=0     yoffset=6     xadvance=18    page=0  chnl=15
char id=91   x=495   y=0     width=7     height=28    xoffset=1     yoffset=6     xadvance=8     page=0  chnl=15
char id=92   x=410   y=75    width=10    height=22    xoffset=-1    yoffset=6     xadvance=8     page=0  chnl=15
char id=93   x=487   y=0     width=7     height=28    xoffset=0     yoffset=6     xadvance=8     page=0  chnl=15
char id=94   x=217   y=124   width=14    height=12    xoffset=0     yoffset=6     xadvance=14    page=0  chnl=15
char id=95   x=405   y=115   width=19    height=3     xoffset=-1    yoffset=31    xadvance=17    page=0  chnl=15
char id=96   x=391   y=115   width=6     height=4     xoffset=1     yoffset=6     xadvance=10    page=0  chnl=15
char id=97   x=16    y=127   width=15    height=16    xoffset=0     yoffset=12    xadvance=16    page=0  chnl=15
char id=98   x=119   y=80    width=16    height=22    xoffset=1     yoffset=6     xadvance=17    page=0  chnl=15
char id=99   x=48    y=126   width=14    height=16    xoffset=0     yoffset=12    xadvance=15    page=0  chnl=15
char id=100  x=0     y=82    width=16    height=22    xoffset=0     yoffset=6     xadvance=17    page=0  chnl=15
char id=101  x=424   y=98    width=16    height=16    xoffset=0     yoffset=12    xadvance=16    page=0  chnl=15
char id=102  x=399   y=75    width=10    height=22    xoffset=0     yoffset=6     xadvance=8     page=0  chnl=15
char id=103  x=17    y=82    width=16    height=22    xoffset=0     yoffset=12    xadvance=17    page=0  chnl=15
char id=104  x=184   y=79    width=15    height=22    xoffset=1     yoffset=6     xadvance=17    page=0  chnl=15
char id=105  x=450   y=75    width=5     height=22    xoffset=1     yoffset=6     xadvance=7     page=0  chnl=15
char id=106  x=478   y=0     width=8     height=28    xoffset=-2    yoffset=6     xadvance=7     page=0  chnl=15
char id=107  x=359   y=75    width=14    height=22    xoffset=1     yoffset=6     xadvance=15    page=0  chnl=15
char id=108  x=444   y=75    width=5     height=22    xoffset=1     yoffset=6     xadvance=7     page=0  chnl=15
char id=109  x=378   y=98    width=23    height=16    xoffset=1     yoffset=12    xadvance=25    page=0  chnl=15
char id=110  x=458   y=98    width=15    height=16    xoffset=1     yoffset=12    xadvance=17    page=0  chnl=15
char id=111  x=441   y=98    width=16    height=16    xoffset=0     yoffset=12    xadvance=16    page=0  chnl=15
char id=112  x=85    y=80    width=16    height=22    xoffset=1     yoffset=12    xadvance=17    page=0  chnl=15
char id=113  x=102   y=80    width=16    height=22    xoffset=0     yoffset=12    xadvance=17    page=0  chnl=15
char id=114  x=78    y=125   width=10    height=16    xoffset=1     yoffset=12    xadvance=10    page=0  chnl=15
char id=115  x=474   y=97    width=15    height=16    xoffset=0     yoffset=12    xadvance=15    page=0  chnl=15
char id=116  x=208   y=102   width=9     height=21    xoffset=0     yoffset=7     xadvance=8     page=0  chnl=15
char id=117  x=0     y=127   width=15    height=16    xoffset=1     yoffset=12    xadvance=17    page=0  chnl=15
char id=118  x=32    y=127   width=15    height=16    xoffset=0     yoffset=12    xadvance=15    page=0  chnl=15
char id=119  x=402   y=98    width=21    height=16    xoffset=0     yoffset=12    xadvance=21    page=0  chnl=15
char id=120  x=63    y=125   width=14    height=16    xoffset=0     yoffset=12    xadvance=14    page=0  chnl=15
char id=121  x=200   y=79    width=15    height=22    xoffset=0     yoffset=12    xadvance=15    page=0  chnl=15
char id=122  x=490   y=97    width=15    height=16    xoffset=0     yoffset=12    xadvance=15    page=0  chnl=15
char id=123  x=426   y=0     width=10    height=28    xoffset=0     yoffset=6     xadvance=10    page=0  chnl=15
char id=124  x=12    y=30    width=4     height=28    xoffset=2     yoffset=6     xadvance=8     page=0  chnl=15
char id=125  x=437   y=0     width=10    height=28    xoffset=0     yoffset=6     xadvance=10    page=0  chnl=15
char id=126  x=373   y=115   width=17    height=6     xoffset=1     yoffset=15    xadvance=18    page=0  chnl=15
char id=160  x=200   y=53    width=3     height=1     xoffset=-1    yoffset=34    xadvance=8     page=0  chnl=15
char id=161  x=438   y=75    width=5     height=22    xoffset=2     yoffset=12    xadvance=9     page=0  chnl=15
char id=162  x=410   y=0     width=15    height=28    xoffset=1     yoffset=6     xadvance=17    page=0  chnl=15
char id=163  x=458   y=52    width=17    height=22    xoffset=0     yoffset=6     xadvance=17    page=0  chnl=15
char id=164  x=140   y=125   width=15    height=14    xoffset=1     yoffset=11    xadvance=17    page=0  chnl=15
char id=165  x=347   y=52    width=18    height=22    xoffset=-1    yoffset=6     xadvance=17    page=0  chnl=15
char id=166  x=7     y=30    width=4     height=28    xoffset=2     yoffset=6     xadvance=8     page=0  chnl=15
char id=167  x=394   y=0     width=15    height=28    xoffset=1     yoffset=6     xadvance=17    page=0  chnl=15
char id=168  x=456   y=115   width=10    height=3     xoffset=0     yoffset=6     xadvance=10    page=0  chnl=15
char id=169  x=445   y=29    width=24    height=22    xoffset=-1    yoffset=6     xadvance=22    page=0  chnl=15
char id=170  x=244   y=120   width=11    height=11    xoffset=0     yoffset=6     xadvance=11    page=0  chnl=15
char id=171  x=202   y=124   width=14    height=13    xoffset=1     yoffset=14    xadvance=17    page=0  chnl=15
char id=172  x=286   y=119   width=16    height=9     xoffset=1     yoffset=13    xadvance=18    page=0  chnl=15
char id=173  x=467   y=115   width=10    height=3     xoffset=0     yoffset=19    xadvance=10    page=0  chnl=15
char id=174  x=420   y=29    width=24    height=22    xoffset=-1    yoffset=6     xadvance=22    page=0  chnl=15
char id=175  x=425   y=115   width=19    height=3     xoffset=-1    yoffset=2     xadvance=17    page=0  chnl=15
char id=176  x=344   y=117   width=10    height=8     xoffset=1     yoffset=6     xadvance=12    page=0  chnl=15
char id=177  x=316   y=98    width=16    height=18    xoffset=0     yoffset=10    xadvance=16    page=0  chnl=15
char id=178  x=256   y=120   width=10    height=11    xoffset=0     yoffset=6     xadvance=10    page=0  chnl=15
char id=179  x=267   y=120   width=10    height=11    xoffset=0     yoffset=6     xadvance=10    page=0  chnl=15
char id=180  x=398   y=115   width=6     height=4     xoffset=3     yoffset=6     xadvance=10    page=0  chnl=15
char id=181  x=344   y=75    width=14    height=22    xoffset=1     yoffset=12    xadvance=17    page=0  chnl=15
char id=182  x=80    y=29    width=18    height=27    xoffset=-1    yoffset=6     xadvance=16    page=0  chnl=15
char id=183  x=478   y=114   width=4     height=3     xoffset=3     yoffset=16    xadvance=10    page=0  chnl=15
char id=184  x=360   y=115   width=7     height=7     xoffset=1     yoffset=28    xadvance=10    page=0  chnl=15
char id=185  x=278   y=120   width=7     height=11    xoffset=1     yoffset=6     xadvance=10    page=0  chnl=15
char id=186  x=232   y=121   width=11    height=11    xoffset=0     yoffset=6     xadvance=11    page=0  chnl=15
char id=187  x=187   y=124   width=14    height=13    xoffset=2     yoffset=14    xadvance=17    page=0  chnl=15
char id=188  x=395   y=29    width=24    height=22    xoffset=1     yoffset=6     xadvance=25    page=0  chnl=15
char id=189  x=370   y=29    width=24    height=22    xoffset=1     yoffset=6     xadvance=25    page=0  chnl=15
char id=190  x=344   y=29    width=25    height=22    xoffset=0     yoffset=6     xadvance=25    page=0  chnl=15
char id=191  x=232   y=76    width=15    height=22    xoffset=1     yoffset=12    xadvance=18    page=0  chnl=15
char id=192  x=138   y=0     width=21    height=28    xoffset=-1    yoffset=0     xadvance=20    page=0  chnl=15
char id=193  x=204   y=0     width=21    height=28    xoffset=-1    yoffset=0     xadvance=20    page=0  chnl=15
char id=194  x=182   y=0     width=21    height=28    xoffset=-1    yoffset=0     xadvance=20    page=0  chnl=15
char id=195  x=160   y=0     width=21    height=28    xoffset=-1    yoffset=0     xadvance=20    page=0  chnl=15
char id=196  x=17    y=30    width=21    height=27    xoffset=-1    yoffset=1     xadvance=20    page=0  chnl=15
char id=197  x=142   y=29    width=21    height=26    xoffset=-1    yoffset=2     xadvance=20    page=0  chnl=15
char id=198  x=256   y=29    width=30    height=22    xoffset=-1    yoffset=6     xadvance=30    page=0  chnl=15
char id=199  x=0     y=0     width=20    height=29    xoffset=1     yoffset=6     xadvance=22    page=0  chnl=15
char id=200  x=341   y=0     width=17    height=28    xoffset=2     yoffset=0     xadvance=20    page=0  chnl=15
char id=201  x=359   y=0     width=17    height=28    xoffset=2     yoffset=0     xadvance=20    page=0  chnl=15
char id=202  x=323   y=0     width=17    height=28    xoffset=2     yoffset=0     xadvance=20    page=0  chnl=15
char id=203  x=99    y=29    width=17    height=27    xoffset=2     yoffset=1     xadvance=20    page=0  chnl=15
char id=204  x=503   y=0     width=6     height=28    xoffset=0     yoffset=0     xadvance=8     page=0  chnl=15
char id=205  x=0     y=30    width=6     height=28    xoffset=0     yoffset=0     xadvance=8     page=0  chnl=15
char id=206  x=468   y=0     width=9     height=28    xoffset=-1    yoffset=0     xadvance=8     page=0  chnl=15
char id=207  x=133   y=29    width=8     height=27    xoffset=-1    yoffset=1     xadvance=8     page=0  chnl=15
char id=208  x=0     y=59    width=22    height=22    xoffset=-1    yoffset=6     xadvance=22    page=0  chnl=15
char id=209  x=266   y=0     width=18    height=28    xoffset=2     yoffset=0     xadvance=22    page=0  chnl=15
char id=210  x=50    y=0     width=21    height=28    xoffset=1     yoffset=0     xadvance=23    page=0  chnl=15
char id=211  x=72    y=0     width=21    height=28    xoffset=1     yoffset=0     xadvance=23    page=0  chnl=15
char id=212  x=116   y=0     width=21    height=28    xoffset=1     yoffset=0     xadvance=23    page=0  chnl=15
char id=213  x=94    y=0     width=21    height=28    xoffset=1     yoffset=0     xadvance=23    page=0  chnl=15
char id=214  x=39    y=29    width=21    height=27    xoffset=1     yoffset=1     xadvance=23    page=0  chnl=15
char id=215  x=172   y=124   width=14    height=13    xoffset=2     yoffset=11    xadvance=18    page=0  chnl=15
char id=216  x=219   y=29    width=21    height=23    xoffset=1     yoffset=6     xadvance=23    page=0  chnl=15
char id=217  x=304   y=0     width=18    height=28    xoffset=2     yoffset=0     xadvance=22    page=0  chnl=15
char id=218  x=247   y=0     width=18    height=28    xoffset=2     yoffset=0     xadvance=22    page=0  chnl=15
char id=219  x=285   y=0     width=18    height=28    xoffset=2     yoffset=0     xadvance=22    page=0  chnl=15
char id=220  x=61    y=29    width=18    height=27    xoffset=2     yoffset=1     xadvance=22    page=0  chnl=15
char id=221  x=226   y=0     width=20    height=28    xoffset=-1    yoffset=0     xadvance=20    page=0  chnl=15
char id=222  x=440   y=52    width=17    height=22    xoffset=2     yoffset=6     xadvance=20    page=0  chnl=15
char id=223  x=476   y=52    width=17    height=22    xoffset=1     yoffset=6     xadvance=18    page=0  chnl=15
char id=224  x=164   y=102   width=15    height=21    xoffset=0     yoffset=7     xadvance=17    page=0  chnl=15
char id=225  x=180   y=102   width=15    height=21    xoffset=0     yoffset=7     xadvance=17    page=0  chnl=15
char id=226  x=132   y=103   width=15    height=21    xoffset=0     yoffset=7     xadvance=17    page=0  chnl=15
char id=227  x=116   y=103   width=15    height=21    xoffset=0     yoffset=7     xadvance=17    page=0  chnl=15
char id=228  x=268   y=99    width=15    height=20    xoffset=0     yoffset=8     xadvance=17    page=0  chnl=15
char id=229  x=264   y=76    width=15    height=22    xoffset=0     yoffset=6     xadvance=17    page=0  chnl=15
char id=230  x=350   y=98    width=27    height=16    xoffset=0     yoffset=12    xadvance=27    page=0  chnl=15
char id=231  x=241   y=29    width=14    height=23    xoffset=0     yoffset=12    xadvance=15    page=0  chnl=15
char id=232  x=461   y=75    width=16    height=21    xoffset=0     yoffset=7     xadvance=17    page=0  chnl=15
char id=233  x=51    y=103   width=16    height=21    xoffset=0     yoffset=7     xadvance=17    page=0  chnl=15
char id=234  x=495   y=75    width=16    height=21    xoffset=0     yoffset=7     xadvance=17    page=0  chnl=15
char id=235  x=251   y=99    width=16    height=20    xoffset=0     yoffset=8     xadvance=17    page=0  chnl=15
char id=236  x=226   y=99    width=7     height=21    xoffset=0     yoffset=7     xadvance=8     page=0  chnl=15
char id=237  x=218   y=99    width=7     height=21    xoffset=2     yoffset=7     xadvance=8     page=0  chnl=15
char id=238  x=196   y=102   width=11    height=21    xoffset=-1    yoffset=7     xadvance=8     page=0  chnl=15
char id=239  x=300   y=98    width=10    height=20    xoffset=-1    yoffset=8     xadvance=8     page=0  chnl=15
char id=240  x=494   y=52    width=17    height=22    xoffset=0     yoffset=6     xadvance=17    page=0  chnl=15
char id=241  x=100   y=103   width=15    height=21    xoffset=1     yoffset=7     xadvance=17    page=0  chnl=15
char id=242  x=34    y=104   width=16    height=21    xoffset=0     yoffset=7     xadvance=17    page=0  chnl=15
char id=243  x=17    y=105   width=16    height=21    xoffset=0     yoffset=7     xadvance=17    page=0  chnl=15
char id=244  x=478   y=75    width=16    height=21    xoffset=0     yoffset=7     xadvance=17    page=0  chnl=15
char id=245  x=0     y=105   width=16    height=21    xoffset=0     yoffset=7     xadvance=17    page=0  chnl=15
char id=246  x=234   y=99    width=16    height=20    xoffset=0     yoffset=8     xadvance=17    page=0  chnl=15
char id=247  x=156   y=125   width=15    height=13    xoffset=1     yoffset=11    xadvance=16    page=0  chnl=15
char id=248  x=333   y=98    width=16    height=18    xoffset=1     yoffset=11    xadvance=18    page=0  chnl=15
char id=249  x=84    y=103   width=15    height=21    xoffset=1     yoffset=7     xadvance=17    page=0  chnl=15
char id=250  x=68    y=103   width=15    height=21    xoffset=1     yoffset=7     xadvance=17    page=0  chnl=15
char id=251  x=148   y=103   width=15    height=21    xoffset=1     yoffset=7     xadvance=17    page=0  chnl=15
char id=252  x=284   y=98    width=15    height=20    xoffset=1     yoffset=8     xadvance=17    page=0  chnl=15
char id=253  x=117   y=29    width=15    height=27    xoffset=0     yoffset=7     xadvance=15    page=0  chnl=15
char id=254  x=377   y=0     width=16    height=28    xoffset=1     yoffset=6     xadvance=17    page=0  chnl=15
char id=255  x=180   y=29    width=15    height=26    xoffset=0     yoffset=8     xadvance=15    page=0  chnl=15
kernings count=91
kerning first=32  second=65  amount=-2  
kerning first=32  second=84  amount=-1  
kerning first=32  second=89  amount=-1  
kerning first=121 second=46  amount=-2  
kerning first=121 second=44  amount=-2  
kerning first=119 second=46  amount=-2  
kerning first=119 second=44  amount=-2  
kerning first=118 second=46  amount=-2  
kerning first=118 second=44  amount=-2  
kerning first=114 second=46  amount=-2  
kerning first=49  second=49  amount=-2  
kerning first=65  second=32  amount=-2  
kerning first=65  second=84  amount=-2  
kerning first=65  second=86  amount=-2  
kerning first=65  second=87  amount=-1  
kerning first=65  second=89  amount=-2  
kerning first=65  second=118 amount=-1  
kerning first=65  second=119 amount=-1  
kerning first=65  second=121 amount=-1  
kerning first=114 second=44  amount=-2  
kerning first=70  second=44  amount=-3  
kerning first=70  second=46  amount=-3  
kerning first=70  second=65  amount=-2  
kerning first=76  second=32  amount=-1  
kerning first=76  second=84  amount=-2  
kerning first=76  second=86  amount=-2  
kerning first=76  second=87  amount=-2  
kerning first=76  second=89  amount=-2  
kerning first=76  second=121 amount=-1  
kerning first=102 second=102 amount=-1  
kerning first=80  second=32  amount=-1  
kerning first=80  second=44  amount=-4  
kerning first=80  second=46  amount=-4  
kerning first=80  second=65  amount=-2  
kerning first=82  second=84  amount=-1  
kerning first=82  second=86  amount=-1  
kerning first=82  second=87  amount=-1  
kerning first=82  second=89  amount=-1  
kerning first=84  second=32  amount=-1  
kerning first=84  second=44  amount=-3  
kerning first=84  second=45  amount=-2  
kerning first=84  second=46  amount=-3  
kerning first=84  second=58  amount=-3  
kerning first=89  second=118 amount=-2  
kerning first=84  second=65  amount=-2  
kerning first=84  second=79  amount=-1  
kerning first=84  second=97  amount=-3  
kerning first=84  second=99  amount=-3  
kerning first=84  second=101 amount=-3  
kerning first=84  second=105 amount=-1  
kerning first=84  second=111 amount=-3  
kerning first=84  second=114 amount=-1  
kerning first=84  second=115 amount=-3  
kerning first=84  second=117 amount=-1  
kerning first=84  second=119 amount=-2  
kerning first=84  second=121 amount=-2  
kerning first=86  second=44  amount=-3  
kerning first=86  second=45  amount=-2  
kerning first=86  second=46  amount=-3  
kerning first=86  second=58  amount=-1  
kerning first=89  second=117 amount=-2  
kerning first=86  second=65  amount=-2  
kerning first=86  second=97  amount=-2  
kerning first=86  second=101 amount=-2  
kerning first=86  second=105 amount=-1  
kerning first=86  second=111 amount=-2  
kerning first=86  second=114 amount=-1  
kerning first=86  second=117 amount=-1  
kerning first=86  second=121 amount=-1  
kerning first=87  second=44  amount=-2  
kerning first=87  second=45  amount=-1  
kerning first=87  second=46  amount=-2  
kerning first=87  second=58  amount=-1  
kerning first=89  second=113 amount=-3  
kerning first=87  second=65  amount=-1  
kerning first=87  second=97  amount=-1  
kerning first=87  second=101 amount=-1  
kerning first=89  second=112 amount=-2  
kerning first=87  second=111 amount=-1  
kerning first=87  second=114 amount=-1  
kerning first=87  second=117 amount=-1  
kerning first=89  second=111 amount=-3  
kerning first=89  second=32  amount=-1  
kerning first=89  second=44  amount=-4  
kerning first=89  second=45  amount=-3  
kerning first=89  second=46  amount=-4  
kerning first=89  second=58  amount=-2  
kerning first=89  second=105 amount=-1  
kerning first=89  second=65  amount=-2  
kerning first=89  second=97  amount=-2  
kerning first=89  second=101 amount=-3  
